param entry_time_param
2408 2408_1 22800
2408 2408_5 22900
2408 2408_10 22942
2408 2408_12 22962
2408 2408_15 23340
2408 2408_20 23399
2408 2408_25 23409
2408 2408_30 23424
2408 2408_35 23437
2408 2408_40 23460
2408 2408_45 23471
2408 2408_50 23480
2408 2408_55 23488
2408 2408_60 23501
2408 2408_65 23521
2408 2408_70 23543
2408 2408_75 23571
2408 2408_80 23600
2408 2408_85 23626
2408 2408_90 23654
2408 2408_95 23680
2408 2408_100 23708
2408 2408_105 23724
2408 2408_110 23746
2408 2408_115 23758
2408 2408_120 23794
2408 2408_125 23821
2408 2408_130 23853
2408 2408_135 23869
2408 2408_140 23889
2408 2408_145 23901
2408 2408_150 23917
2408 2408_155 23943
2408 2408_160 23973
2408 2408_165 24026
2408 2408_170 24058
2408 2408_175 24074
2408 2408_180 24088
2408 2408_185 24105
2408 2408_190 24127
2408 2408_195 24152
2408 2408_200 24176
2408 2408_205 24196
2408 2408_210 24229
2408 2408_215 24262
2408 2408_220 24287
2408 2408_225 24314
2408 2408_230 24328
2408 2408_235 24342
2408 2408_240 24370
2408 2408_245 24401
2408 2408_250 24440
2408 2408_255 24444
2408 2408_260 24476
2408 2408_265 24500
856 856_1 26400
856 856_5 26500
856 856_10 26542
856 856_12 26562
856 856_15 26940
856 856_20 26999
856 856_25 27009
856 856_30 27024
856 856_35 27037
856 856_40 27060
856 856_45 27071
856 856_50 27080
856 856_55 27088
856 856_60 27101
856 856_65 27121
856 856_70 27143
856 856_75 27171
856 856_80 27200
856 856_85 27226
856 856_90 27254
856 856_95 27280
856 856_100 27308
856 856_105 27324
856 856_110 27346
856 856_115 27358
856 856_120 27394
856 856_125 27421
856 856_130 27453
856 856_135 27469
856 856_140 27489
856 856_145 27501
856 856_150 27517
856 856_155 27543
856 856_160 27573
856 856_165 27626
856 856_170 27658
856 856_175 27674
856 856_180 27688
856 856_185 27705
856 856_190 27727
856 856_195 27752
856 856_200 27776
856 856_205 27796
856 856_210 27829
856 856_215 27862
856 856_220 27887
856 856_225 27914
856 856_230 27928
856 856_235 27942
856 856_240 27970
856 856_245 28001
856 856_250 28040
856 856_255 28044
856 856_260 28076
856 856_265 28100
2620 2620_1 23100
2620 2620_5 23140
2620 2620_10 23180
2620 2620_12 23201
2620 2620_15 23460
2620 2620_20 23524
2620 2620_25 23535
2620 2620_30 23550
2620 2620_35 23563
2620 2620_40 23586
2620 2620_45 23597
2620 2620_50 23606
2620 2620_55 23614
2620 2620_60 23627
2620 2620_65 23647
2620 2620_70 23669
2620 2620_75 23696
2620 2620_80 23725
2620 2620_85 23751
2620 2620_90 23779
2620 2620_95 23805
2620 2620_100 23835
2620 2620_105 23851
2620 2620_110 23873
2620 2620_115 23885
2620 2620_120 23920
2620 2620_125 23947
2620 2620_130 23981
2620 2620_135 23997
2620 2620_140 24017
2620 2620_145 24029
2620 2620_150 24044
2620 2620_155 24071
2620 2620_160 24101
2620 2620_165 24154
2620 2620_167 24192
2620 2620_170 24360
2620 2620_175 24414
2620 2620_180 24433
2620 2620_185 24449
2620 2620_190 24469
2620 2620_195 24495
2620 2620_200 24519
2620 2620_205 24539
2620 2620_210 24573
2620 2620_215 24607
2620 2620_220 24633
2620 2620_225 24659
2620 2620_230 24673
2620 2620_235 24688
2620 2620_240 24717
2620 2620_245 24752
2620 2620_250 24790
2620 2620_255 24794
2620 2620_260 24826
2620 2620_265 24850
2622 2622_1 24720
2622 2622_5 24760
2622 2622_10 24800
2622 2622_12 24821
2622 2622_15 25080
2622 2622_20 25144
2622 2622_25 25155
2622 2622_30 25170
2622 2622_35 25183
2622 2622_40 25206
2622 2622_45 25217
2622 2622_50 25228
2622 2622_52 25255
2622 2622_55 25313
2622 2622_60 25351
2622 2622_65 25377
2622 2622_70 25399
2622 2622_75 25426
2622 2622_80 25455
2622 2622_85 25481
2622 2622_90 25509
2622 2622_95 25535
2622 2622_100 25565
2622 2622_105 25581
2622 2622_110 25603
2622 2622_115 25615
2622 2622_120 25650
2622 2622_125 25677
2622 2622_130 25711
2622 2622_135 25727
2622 2622_140 25747
2622 2622_145 25759
2622 2622_150 25774
2622 2622_155 25801
2622 2622_160 25831
2622 2622_165 25884
2622 2622_167 25922
2622 2622_170 26100
2622 2622_175 26154
2622 2622_180 26173
2622 2622_185 26189
2622 2622_190 26209
2622 2622_195 26235
2622 2622_200 26259
2622 2622_205 26279
2622 2622_210 26313
2622 2622_215 26347
2622 2622_220 26373
2622 2622_225 26399
2622 2622_230 26413
2622 2622_235 26428
2622 2622_240 26457
2622 2622_245 26492
2622 2622_250 26530
2622 2622_255 26534
2622 2622_260 26566
2622 2622_265 26590
2624 2624_1 26700
2624 2624_5 26740
2624 2624_10 26780
2624 2624_12 26801
2624 2624_15 27060
2624 2624_20 27124
2624 2624_25 27135
2624 2624_30 27150
2624 2624_35 27163
2624 2624_40 27186
2624 2624_45 27197
2624 2624_50 27206
2624 2624_55 27214
2624 2624_60 27227
2624 2624_65 27247
2624 2624_70 27269
2624 2624_75 27296
2624 2624_80 27325
2624 2624_85 27351
2624 2624_90 27379
2624 2624_95 27405
2624 2624_100 27435
2624 2624_105 27451
2624 2624_110 27473
2624 2624_115 27485
2624 2624_120 27520
2624 2624_125 27547
2624 2624_130 27581
2624 2624_135 27597
2624 2624_140 27617
2624 2624_145 27629
2624 2624_150 27644
2624 2624_155 27671
2624 2624_160 27701
2624 2624_165 27754
2624 2624_167 27792
2624 2624_170 27960
2624 2624_175 28014
2624 2624_180 28033
2624 2624_185 28049
2624 2624_190 28069
2624 2624_195 28095
2624 2624_200 28119
2624 2624_205 28139
2624 2624_210 28173
2624 2624_215 28207
2624 2624_220 28233
2624 2624_225 28259
2624 2624_230 28273
2624 2624_235 28288
2624 2624_240 28317
2624 2624_245 28352
2624 2624_250 28390
2624 2624_255 28394
2624 2624_260 28426
2624 2624_265 28450
2626 2626_1 28320
2626 2626_5 28360
2626 2626_10 28400
2626 2626_12 28421
2626 2626_15 28680
2626 2626_20 28744
2626 2626_25 28755
2626 2626_30 28770
2626 2626_35 28783
2626 2626_40 28806
2626 2626_45 28817
2626 2626_50 28828
2626 2626_52 28855
2626 2626_55 28913
2626 2626_60 28951
2626 2626_65 28977
2626 2626_70 28999
2626 2626_75 29026
2626 2626_80 29055
2626 2626_85 29081
2626 2626_90 29109
2626 2626_95 29135
2626 2626_100 29165
2626 2626_105 29181
2626 2626_110 29203
2626 2626_115 29215
2626 2626_120 29250
2626 2626_125 29277
2626 2626_130 29311
2626 2626_135 29327
2626 2626_140 29347
2626 2626_145 29359
2626 2626_150 29374
2626 2626_155 29401
2626 2626_160 29431
2626 2626_165 29484
2626 2626_167 29522
2626 2626_170 29700
2626 2626_175 29754
2626 2626_180 29773
2626 2626_185 29789
2626 2626_190 29809
2626 2626_195 29835
2626 2626_200 29859
2626 2626_205 29879
2626 2626_210 29913
2626 2626_215 29947
2626 2626_220 29973
2626 2626_225 29999
2626 2626_230 30013
2626 2626_235 30028
2626 2626_240 30057
2626 2626_245 30092
2626 2626_250 30130
2626 2626_255 30134
2626 2626_260 30166
2626 2626_265 30190
558 558_1 21840
558 558_5 22140
558 558_10 22204
558 558_15 22219
558 558_20 22226
558 558_25 22242
558 558_30 22268
558 558_35 22308
558 558_40 22347
558 558_45 22389
558 558_50 22427
558 558_55 22463
558 558_60 22505
558 558_65 22544
558 558_67 22682
558 558_70 22740
558 558_75 22818
558 558_80 22834
558 558_85 22882
558 558_90 22914
558 558_95 22924
558 558_100 22946
558 558_105 22977
558 558_110 23006
558 558_115 23015
558 558_120 23082
558 558_125 23124
558 558_130 23148
558 558_132 23163
558 558_135 23280
558 558_140 23345
558 558_145 23361
558 558_150 23400
558 558_155 23412
558 558_160 23433
558 558_165 23440
558 558_170 23515
558 558_175 23586
558 558_180 23600
558 558_185 23619
558 558_190 23627
558 558_195 23689
558 558_200 23699
558 558_205 23727
558 558_210 23735
558 558_215 23784
558 558_220 23834
558 558_225 23854
558 558_230 23872
558 558_235 23884
558 558_240 23938
558 558_245 23983
558 558_250 24039
558 558_255 24082
558 558_260 24094
558 558_265 24122
558 558_270 24136
558 558_275 24192
558 558_280 24228
558 558_285 24262
558 558_290 24276
558 558_295 24295
558 558_300 24305
558 558_305 24343
558 558_310 24371
558 558_315 24394
558 558_320 24413
558 558_325 24436
558 558_330 24466
558 558_335 24483
558 558_340 24495
558 558_345 24505
558 558_350 24534
558 558_355 24563
558 558_360 24592
558 558_365 24606
558 558_370 24622
558 558_375 24630
558 558_380 24654
558 558_385 24687
558 558_390 24721
558 558_395 24752
558 558_400 24781
558 558_405 24796
558 558_410 24815
558 558_415 24826
558 558_420 24870
558 558_425 24903
558 558_430 24917
558 558_435 24934
558 558_440 24941
558 558_445 24964
558 558_450 24993
558 558_455 25040
558 558_460 25064
558 558_465 25094
558 558_470 25113
558 558_475 25133
558 558_480 25151
558 558_485 25165
558 558_490 25191
558 558_495 25223
558 558_500 25270
558 558_505 25290
558 558_510 25308
558 558_515 25346
558 558_520 25393
558 558_525 25426
558 558_530 25448
558 558_535 25457
558 558_540 25477
558 558_545 25492
558 558_550 25507
558 558_555 25535
558 558_560 25571
558 558_565 25586
558 558_570 25609
558 558_575 25616
558 558_580 25662
558 558_585 25705
558 558_590 25723
558 558_595 25744
558 558_600 25756
558 558_605 25792
558 558_610 25824
558 558_615 25853
558 558_620 25867
558 558_625 25880
558 558_630 25893
558 558_635 25908
558 558_640 25923
558 558_645 25939
558 558_650 25960
558 558_655 25985
558 558_660 26009
558 558_665 26029
558 558_670 26063
558 558_675 26098
558 558_680 26123
558 558_685 26150
558 558_690 26164
558 558_695 26178
558 558_700 26208
558 558_705 26242
558 558_710 26280
558 558_715 26284
558 558_720 26316
558 558_725 26340
560 560_1 25440
560 560_5 25740
560 560_10 25804
560 560_15 25819
560 560_20 25826
560 560_25 25842
560 560_30 25868
560 560_35 25908
560 560_40 25947
560 560_45 25989
560 560_50 26027
560 560_55 26063
560 560_60 26105
560 560_65 26144
560 560_67 26282
560 560_70 26340
560 560_75 26418
560 560_80 26434
560 560_85 26482
560 560_90 26514
560 560_95 26524
560 560_100 26546
560 560_105 26577
560 560_110 26606
560 560_115 26615
560 560_120 26682
560 560_125 26724
560 560_130 26748
560 560_132 26763
560 560_135 26880
560 560_140 26945
560 560_145 26961
560 560_150 27000
560 560_155 27012
560 560_160 27033
560 560_165 27040
560 560_170 27115
560 560_175 27186
560 560_180 27200
560 560_185 27219
560 560_190 27227
560 560_195 27289
560 560_200 27299
560 560_205 27327
560 560_210 27335
560 560_215 27384
560 560_220 27434
560 560_225 27454
560 560_230 27472
560 560_235 27484
560 560_240 27538
560 560_245 27583
560 560_250 27639
560 560_255 27682
560 560_260 27694
560 560_265 27722
560 560_270 27736
560 560_275 27792
560 560_280 27828
560 560_285 27862
560 560_290 27876
560 560_295 27895
560 560_300 27905
560 560_305 27943
560 560_310 27971
560 560_315 27994
560 560_320 28013
560 560_325 28036
560 560_330 28066
560 560_335 28083
560 560_340 28095
560 560_345 28105
560 560_350 28134
560 560_355 28163
560 560_360 28192
560 560_365 28206
560 560_370 28222
560 560_375 28230
560 560_380 28254
560 560_385 28287
560 560_390 28321
560 560_395 28352
560 560_400 28381
560 560_405 28396
560 560_410 28415
560 560_415 28426
560 560_420 28470
560 560_425 28503
560 560_430 28517
560 560_435 28534
560 560_440 28541
560 560_445 28564
560 560_450 28593
560 560_455 28640
560 560_460 28664
560 560_465 28694
560 560_470 28713
560 560_475 28733
560 560_480 28751
560 560_485 28765
560 560_490 28791
560 560_495 28823
560 560_500 28870
560 560_505 28890
560 560_510 28908
560 560_515 28946
560 560_520 28993
560 560_525 29026
560 560_530 29048
560 560_535 29057
560 560_540 29077
560 560_545 29092
560 560_550 29107
560 560_555 29135
560 560_560 29171
560 560_565 29186
560 560_570 29209
560 560_575 29216
560 560_580 29262
560 560_585 29305
560 560_590 29323
560 560_595 29344
560 560_600 29356
560 560_605 29392
560 560_610 29424
560 560_615 29453
560 560_620 29467
560 560_625 29480
560 560_630 29493
560 560_635 29508
560 560_640 29523
560 560_645 29539
560 560_650 29560
560 560_655 29585
560 560_660 29609
560 560_665 29629
560 560_670 29663
560 560_675 29698
560 560_680 29723
560 560_685 29750
560 560_690 29764
560 560_695 29778
560 560_700 29808
560 560_705 29842
560 560_710 29880
560 560_715 29884
560 560_720 29916
560 560_725 29940
562 562_1 29040
562 562_5 29340
562 562_10 29404
562 562_15 29419
562 562_20 29426
562 562_25 29442
562 562_30 29468
562 562_35 29508
562 562_40 29547
562 562_45 29589
562 562_50 29627
562 562_55 29663
562 562_60 29705
562 562_65 29744
562 562_67 29882
562 562_70 29940
562 562_75 30018
562 562_80 30034
562 562_85 30082
562 562_90 30114
562 562_95 30124
562 562_100 30146
562 562_105 30177
562 562_110 30206
562 562_115 30215
562 562_120 30282
562 562_125 30324
562 562_130 30348
562 562_132 30363
562 562_135 30480
562 562_140 30545
562 562_145 30561
562 562_150 30600
562 562_155 30612
562 562_160 30633
562 562_165 30640
562 562_170 30715
562 562_175 30786
562 562_180 30800
562 562_185 30819
562 562_190 30827
562 562_195 30889
562 562_200 30899
562 562_205 30927
562 562_210 30935
562 562_215 30984
562 562_220 31034
562 562_225 31054
562 562_230 31072
562 562_235 31084
562 562_240 31138
562 562_245 31183
562 562_250 31239
562 562_255 31282
562 562_260 31294
562 562_265 31322
562 562_270 31336
562 562_275 31392
562 562_280 31428
562 562_285 31462
562 562_290 31476
562 562_295 31495
562 562_300 31505
562 562_305 31543
562 562_310 31571
562 562_315 31594
562 562_320 31613
562 562_325 31636
562 562_330 31666
562 562_335 31683
562 562_340 31695
562 562_345 31705
562 562_350 31734
562 562_355 31763
562 562_360 31792
562 562_365 31806
562 562_370 31822
562 562_375 31830
562 562_380 31854
562 562_385 31887
562 562_390 31921
562 562_395 31952
562 562_400 31981
562 562_405 31996
562 562_410 32015
562 562_415 32026
562 562_420 32070
562 562_425 32103
562 562_430 32117
562 562_435 32134
562 562_440 32141
562 562_445 32164
562 562_450 32193
562 562_455 32240
562 562_460 32264
562 562_465 32294
562 562_470 32313
562 562_475 32333
562 562_480 32351
562 562_485 32365
562 562_490 32391
562 562_495 32423
562 562_500 32470
562 562_505 32490
562 562_510 32508
562 562_515 32546
562 562_520 32593
562 562_525 32626
562 562_530 32648
562 562_535 32657
562 562_540 32677
562 562_545 32692
562 562_550 32707
562 562_555 32735
562 562_560 32771
562 562_565 32786
562 562_570 32809
562 562_575 32816
562 562_580 32862
562 562_585 32905
562 562_590 32923
562 562_595 32944
562 562_600 32956
562 562_605 32992
562 562_610 33024
562 562_615 33053
562 562_620 33067
562 562_625 33080
562 562_630 33093
562 562_635 33108
562 562_640 33123
562 562_645 33139
562 562_650 33160
562 562_655 33185
562 562_660 33209
562 562_665 33229
562 562_670 33263
562 562_675 33298
562 562_680 33323
562 562_685 33350
562 562_690 33364
562 562_695 33378
562 562_700 33408
562 562_705 33442
562 562_710 33480
562 562_715 33484
562 562_720 33516
562 562_725 33540
464 464_130 29880
464 464_135 30180
464 464_140 30245
464 464_145 30261
464 464_150 30300
464 464_155 30312
464 464_160 30333
464 464_165 30340
464 464_170 30415
464 464_175 30486
464 464_180 30500
464 464_185 30519
464 464_190 30527
464 464_195 30589
464 464_200 30599
464 464_205 30627
464 464_210 30635
464 464_215 30684
464 464_220 30734
464 464_225 30754
464 464_230 30772
464 464_235 30784
464 464_240 30838
464 464_245 30883
464 464_250 30939
464 464_255 30982
464 464_260 30994
464 464_265 31022
464 464_270 31036
464 464_275 31092
464 464_280 31128
464 464_285 31162
464 464_290 31176
464 464_295 31195
464 464_300 31205
464 464_305 31243
464 464_310 31271
464 464_315 31294
464 464_320 31313
464 464_325 31336
464 464_330 31366
464 464_335 31383
464 464_340 31395
464 464_345 31405
464 464_350 31434
464 464_355 31463
464 464_360 31492
464 464_365 31506
464 464_370 31522
464 464_375 31530
464 464_380 31554
464 464_385 31587
464 464_390 31621
464 464_395 31652
464 464_400 31681
464 464_405 31696
464 464_410 31715
464 464_415 31726
464 464_420 31770
464 464_425 31803
464 464_430 31817
464 464_435 31834
464 464_440 31841
464 464_445 31864
464 464_450 31893
464 464_455 31940
464 464_460 31964
464 464_465 31994
464 464_470 32013
464 464_475 32033
464 464_480 32051
464 464_485 32065
464 464_490 32091
464 464_495 32123
464 464_500 32170
464 464_505 32190
464 464_510 32208
464 464_515 32246
464 464_520 32293
464 464_525 32326
464 464_530 32348
464 464_535 32357
464 464_540 32377
464 464_545 32392
464 464_550 32407
464 464_555 32435
464 464_560 32471
464 464_565 32486
464 464_570 32509
464 464_575 32516
464 464_580 32562
464 464_585 32605
464 464_590 32623
464 464_595 32644
464 464_600 32656
464 464_605 32692
464 464_610 32724
464 464_615 32753
464 464_620 32767
464 464_625 32780
464 464_630 32793
464 464_635 32808
464 464_640 32823
464 464_645 32839
464 464_650 32860
464 464_655 32885
464 464_660 32909
464 464_665 32929
464 464_670 32963
464 464_675 32998
464 464_680 33023
464 464_685 33050
464 464_690 33064
464 464_695 33078
464 464_700 33108
464 464_705 33142
464 464_710 33180
464 464_715 33184
464 464_720 33216
464 464_725 33240
466 466_130 26280
466 466_135 26580
466 466_140 26645
466 466_145 26661
466 466_150 26700
466 466_155 26712
466 466_160 26733
466 466_165 26740
466 466_170 26815
466 466_175 26886
466 466_180 26900
466 466_185 26919
466 466_190 26927
466 466_195 26989
466 466_200 26999
466 466_205 27027
466 466_210 27035
466 466_215 27084
466 466_220 27134
466 466_225 27154
466 466_230 27172
466 466_235 27184
466 466_240 27238
466 466_245 27283
466 466_250 27339
466 466_255 27382
466 466_260 27394
466 466_265 27422
466 466_270 27436
466 466_275 27492
466 466_280 27528
466 466_285 27562
466 466_290 27576
466 466_295 27595
466 466_300 27605
466 466_305 27643
466 466_310 27671
466 466_315 27694
466 466_320 27713
466 466_325 27736
466 466_330 27766
466 466_335 27783
466 466_340 27795
466 466_345 27805
466 466_350 27834
466 466_355 27863
466 466_360 27892
466 466_365 27906
466 466_370 27922
466 466_375 27930
466 466_380 27954
466 466_385 27987
466 466_390 28021
466 466_395 28052
466 466_400 28081
466 466_405 28096
466 466_410 28115
466 466_415 28126
466 466_420 28170
466 466_425 28203
466 466_430 28217
466 466_435 28234
466 466_440 28241
466 466_445 28264
466 466_450 28293
466 466_455 28340
466 466_460 28364
466 466_465 28394
466 466_470 28413
466 466_475 28433
466 466_480 28451
466 466_485 28465
466 466_490 28491
466 466_495 28523
466 466_500 28570
466 466_505 28590
466 466_510 28608
466 466_515 28646
466 466_520 28693
466 466_525 28726
466 466_530 28748
466 466_535 28757
466 466_540 28777
466 466_545 28792
466 466_550 28807
466 466_555 28835
466 466_560 28871
466 466_565 28886
466 466_570 28909
466 466_575 28916
466 466_580 28962
466 466_585 29005
466 466_590 29023
466 466_595 29044
466 466_600 29056
466 466_605 29092
466 466_610 29124
466 466_615 29153
466 466_620 29167
466 466_625 29180
466 466_630 29193
466 466_635 29208
466 466_640 29223
466 466_645 29239
466 466_650 29260
466 466_655 29285
466 466_660 29309
466 466_665 29329
466 466_670 29363
466 466_675 29398
466 466_680 29423
466 466_685 29450
466 466_690 29464
466 466_695 29478
466 466_700 29508
466 466_705 29542
466 466_710 29580
466 466_715 29584
466 466_720 29616
466 466_725 29640
912 912_1 23640
912 912_5 23940
912 912_10 24004
912 912_15 24019
912 912_20 24026
912 912_25 24042
912 912_30 24068
912 912_35 24108
912 912_40 24147
912 912_45 24189
912 912_50 24227
912 912_55 24263
912 912_60 24305
912 912_65 24344
912 912_67 24482
912 912_70 24540
912 912_75 24618
912 912_80 24634
912 912_85 24682
912 912_90 24714
912 912_95 24724
912 912_100 24746
912 912_105 24777
912 912_110 24806
912 912_115 24815
912 912_120 24882
912 912_125 24924
912 912_130 24948
912 912_132 24963
912 912_135 25080
912 912_140 25145
912 912_145 25161
912 912_150 25200
912 912_155 25212
912 912_160 25233
912 912_165 25240
912 912_170 25315
912 912_175 25386
912 912_180 25400
912 912_185 25419
912 912_190 25427
912 912_195 25489
912 912_200 25499
912 912_205 25527
912 912_210 25535
912 912_215 25584
912 912_220 25634
912 912_225 25654
912 912_230 25672
912 912_235 25684
912 912_240 25738
912 912_245 25783
912 912_250 25839
912 912_255 25882
912 912_260 25894
912 912_265 25922
912 912_270 25936
912 912_275 25992
912 912_280 26028
912 912_285 26062
912 912_290 26076
912 912_295 26095
912 912_300 26105
912 912_305 26143
912 912_310 26171
912 912_315 26194
912 912_320 26213
912 912_325 26236
912 912_330 26266
912 912_335 26283
912 912_340 26295
912 912_345 26305
912 912_350 26334
912 912_355 26363
912 912_360 26392
912 912_365 26406
912 912_370 26422
912 912_375 26430
912 912_380 26454
912 912_385 26487
912 912_390 26521
912 912_395 26552
912 912_400 26581
912 912_405 26596
912 912_410 26615
912 912_415 26626
912 912_420 26670
912 912_425 26703
912 912_430 26717
912 912_435 26734
912 912_440 26741
912 912_445 26764
912 912_450 26793
912 912_455 26840
912 912_460 26864
912 912_465 26894
912 912_470 26913
912 912_475 26933
912 912_480 26951
912 912_485 26965
912 912_490 26991
912 912_495 27023
912 912_500 27070
912 912_505 27090
912 912_510 27108
912 912_515 27146
912 912_520 27193
912 912_525 27226
912 912_530 27248
912 912_535 27257
912 912_540 27277
912 912_545 27292
912 912_550 27307
912 912_555 27335
912 912_560 27371
912 912_565 27386
912 912_570 27409
912 912_575 27416
912 912_580 27462
912 912_585 27505
912 912_590 27523
912 912_595 27544
912 912_600 27556
912 912_605 27592
912 912_610 27624
912 912_615 27653
912 912_620 27667
912 912_625 27680
912 912_630 27693
912 912_635 27708
912 912_640 27723
912 912_645 27739
912 912_650 27760
912 912_655 27785
912 912_660 27809
912 912_665 27829
912 912_670 27863
912 912_675 27898
912 912_680 27923
912 912_685 27950
912 912_690 27964
912 912_695 27978
912 912_700 28008
912 912_705 28042
912 912_710 28080
912 912_715 28084
912 912_720 28116
912 912_725 28140
916 916_1 30840
916 916_5 31140
916 916_10 31204
916 916_15 31219
916 916_20 31226
916 916_25 31242
916 916_30 31268
916 916_35 31308
916 916_40 31347
916 916_45 31389
916 916_50 31427
916 916_55 31463
916 916_60 31505
916 916_65 31544
916 916_67 31682
916 916_70 31740
916 916_75 31818
916 916_80 31834
916 916_85 31882
916 916_90 31914
916 916_95 31924
916 916_100 31946
916 916_105 31977
916 916_110 32006
916 916_115 32015
916 916_120 32082
916 916_125 32124
916 916_130 32148
916 916_132 32163
916 916_135 32280
916 916_140 32345
916 916_145 32361
916 916_150 32400
916 916_155 32412
916 916_160 32433
916 916_165 32440
916 916_170 32515
916 916_175 32586
916 916_180 32600
916 916_185 32619
916 916_190 32627
916 916_195 32689
916 916_200 32699
916 916_205 32727
916 916_210 32735
916 916_215 32784
916 916_220 32834
916 916_225 32854
916 916_230 32872
916 916_235 32884
916 916_240 32938
916 916_245 32983
916 916_250 33039
916 916_255 33082
916 916_260 33094
916 916_265 33122
916 916_270 33136
916 916_275 33192
916 916_280 33228
916 916_285 33262
916 916_290 33276
916 916_295 33295
916 916_300 33305
916 916_305 33343
916 916_310 33371
916 916_315 33394
916 916_320 33413
916 916_325 33436
916 916_330 33466
916 916_335 33483
916 916_340 33495
916 916_345 33505
916 916_350 33534
916 916_355 33563
916 916_360 33592
916 916_365 33606
916 916_370 33622
916 916_375 33630
916 916_380 33654
916 916_385 33687
916 916_390 33721
916 916_395 33752
916 916_400 33781
916 916_405 33796
916 916_410 33815
916 916_415 33826
916 916_420 33870
916 916_425 33903
916 916_430 33917
916 916_435 33934
916 916_440 33941
916 916_445 33964
916 916_450 33993
916 916_455 34040
916 916_460 34064
916 916_465 34094
916 916_470 34113
916 916_475 34133
916 916_480 34151
916 916_485 34165
916 916_490 34191
916 916_495 34223
916 916_500 34270
916 916_505 34290
916 916_510 34308
916 916_515 34346
916 916_520 34393
916 916_525 34426
916 916_530 34448
916 916_535 34457
916 916_540 34477
916 916_545 34492
916 916_550 34507
916 916_555 34535
916 916_560 34571
916 916_565 34586
916 916_570 34609
916 916_575 34616
916 916_580 34662
916 916_585 34705
916 916_590 34723
916 916_595 34744
916 916_600 34756
916 916_605 34792
916 916_610 34824
916 916_615 34853
916 916_620 34867
916 916_625 34880
916 916_630 34893
916 916_635 34908
916 916_640 34923
916 916_645 34939
916 916_650 34960
916 916_655 34985
916 916_660 35009
916 916_665 35029
916 916_670 35063
916 916_675 35098
916 916_680 35123
916 916_685 35150
916 916_690 35164
916 916_695 35178
916 916_700 35208
916 916_705 35242
916 916_710 35280
916 916_715 35284
916 916_720 35316
916 916_725 35340
911 911_1 25320
911 911_5 25620
911 911_10 25663
911 911_15 25689
911 911_20 25704
911 911_25 25726
911 911_30 25746
911 911_35 25758
911 911_40 25781
911 911_45 25803
911 911_50 25826
911 911_55 25850
911 911_60 25884
911 911_65 25929
911 911_70 25973
911 911_75 25989
911 911_80 26010
911 911_85 26025
911 911_90 26042
911 911_95 26057
911 911_100 26069
911 911_105 26078
911 911_110 26096
911 911_115 26110
911 911_120 26124
911 911_125 26137
911 911_130 26187
911 911_135 26205
911 911_140 26226
911 911_145 26237
911 911_150 26287
911 911_155 26325
911 911_160 26339
911 911_165 26365
911 911_170 26373
911 911_175 26415
911 911_180 26450
911 911_185 26472
911 911_190 26492
911 911_195 26508
911 911_200 26522
911 911_205 26558
911 911_210 26594
911 911_215 26621
911 911_220 26652
911 911_225 26668
911 911_230 26700
911 911_235 26728
911 911_240 26771
911 911_245 26796
911 911_250 26817
911 911_255 26838
911 911_260 26850
911 911_265 26890
911 911_270 26925
911 911_275 26957
911 911_280 26996
911 911_285 27014
911 911_290 27031
911 911_295 27039
911 911_300 27060
911 911_305 27091
911 911_310 27119
911 911_315 27131
911 911_320 27153
911 911_325 27162
911 911_330 27186
911 911_335 27218
911 911_340 27250
911 911_345 27282
911 911_350 27312
911 911_355 27326
911 911_360 27343
911 911_365 27351
911 911_370 27374
911 911_375 27406
911 911_380 27437
911 911_385 27453
911 911_390 27466
911 911_395 27495
911 911_400 27531
911 911_405 27555
911 911_410 27576
911 911_415 27593
911 911_420 27639
911 911_425 27653
911 911_430 27675
911 911_435 27681
911 911_440 27725
911 911_445 27758
911 911_450 27797
911 911_455 27821
911 911_460 27829
911 911_465 27848
911 911_470 27885
911 911_475 27901
911 911_480 27958
911 911_485 28003
911 911_490 28049
911 911_495 28070
911 911_500 28088
911 911_505 28102
911 911_510 28136
911 911_515 28200
911 911_520 28215
911 911_525 28240
911 911_530 28250
911 911_535 28307
911 911_540 28321
911 911_545 28342
911 911_550 28348
911 911_555 28412
911 911_560 28496
911 911_565 28510
911 911_570 28530
911 911_575 28536
911 911_580 28572
911 911_582 28592
911 911_585 28980
911 911_590 29045
911 911_595 29061
911 911_600 29082
911 911_605 29128
911 911_610 29189
911 911_615 29202
911 911_620 29221
911 911_625 29256
911 911_630 29285
911 911_635 29294
911 911_640 29329
911 911_645 29364
911 911_647 29389
911 911_650 29520
911 911_655 29595
911 911_660 29609
911 911_665 29625
911 911_670 29660
911 911_675 29693
911 911_680 29698
911 911_685 29738
911 911_690 29777
911 911_695 29818
911 911_700 29859
911 911_705 29897
911 911_710 29949
911 911_715 29966
911 911_720 29989
913 913_1 28920
913 913_5 29220
913 913_10 29263
913 913_15 29289
913 913_20 29304
913 913_25 29326
913 913_30 29346
913 913_35 29358
913 913_40 29381
913 913_45 29403
913 913_50 29426
913 913_55 29450
913 913_60 29484
913 913_65 29529
913 913_70 29573
913 913_75 29589
913 913_80 29610
913 913_85 29625
913 913_90 29642
913 913_95 29657
913 913_100 29669
913 913_105 29678
913 913_110 29696
913 913_115 29710
913 913_120 29724
913 913_125 29737
913 913_130 29787
913 913_135 29805
913 913_140 29826
913 913_145 29837
913 913_150 29887
913 913_155 29925
913 913_160 29939
913 913_165 29965
913 913_170 29973
913 913_175 30015
913 913_180 30050
913 913_185 30072
913 913_190 30092
913 913_195 30108
913 913_200 30122
913 913_205 30158
913 913_210 30194
913 913_215 30221
913 913_220 30252
913 913_225 30268
913 913_230 30300
913 913_235 30328
913 913_240 30371
913 913_245 30396
913 913_250 30417
913 913_255 30438
913 913_260 30450
913 913_265 30490
913 913_270 30525
913 913_275 30557
913 913_280 30596
913 913_285 30614
913 913_290 30631
913 913_295 30639
913 913_300 30660
913 913_305 30691
913 913_310 30719
913 913_315 30731
913 913_320 30753
913 913_325 30762
913 913_330 30786
913 913_335 30818
913 913_340 30850
913 913_345 30882
913 913_350 30912
913 913_355 30926
913 913_360 30943
913 913_365 30951
913 913_370 30974
913 913_375 31006
913 913_380 31037
913 913_385 31053
913 913_390 31066
913 913_395 31095
913 913_400 31131
913 913_405 31155
913 913_410 31176
913 913_415 31193
913 913_420 31239
913 913_425 31253
913 913_430 31275
913 913_435 31281
913 913_440 31325
913 913_445 31358
913 913_450 31397
913 913_455 31421
913 913_460 31429
913 913_465 31448
913 913_470 31485
913 913_475 31501
913 913_480 31558
913 913_485 31603
913 913_490 31649
913 913_495 31670
913 913_500 31688
913 913_505 31702
913 913_510 31736
913 913_515 31800
913 913_520 31815
913 913_525 31840
913 913_530 31850
913 913_535 31907
913 913_540 31921
913 913_545 31942
913 913_550 31948
913 913_555 32012
913 913_560 32096
913 913_565 32110
913 913_570 32130
913 913_575 32136
913 913_580 32172
913 913_582 32192
913 913_585 32580
913 913_590 32645
913 913_595 32661
913 913_600 32682
913 913_605 32728
913 913_610 32789
913 913_615 32802
913 913_620 32821
913 913_625 32856
913 913_630 32885
913 913_635 32894
913 913_640 32929
913 913_645 32964
913 913_647 32989
913 913_650 33120
913 913_655 33195
913 913_660 33209
913 913_665 33225
913 913_670 33260
913 913_675 33293
913 913_680 33298
913 913_685 33338
913 913_690 33377
913 913_695 33418
913 913_700 33459
913 913_705 33497
913 913_710 33549
913 913_715 33566
913 913_720 33589
5059 5059_1 22020
5059 5059_5 22320
5059 5059_10 22361
5059 5059_15 22387
5059 5059_20 22396
5059 5059_25 22417
5059 5059_30 22437
5059 5059_35 22449
5059 5059_40 22470
5059 5059_45 22491
5059 5059_50 22513
5059 5059_55 22535
5059 5059_60 22569
5059 5059_65 22614
5059 5059_70 22658
5059 5059_75 22674
5059 5059_80 22695
5059 5059_85 22710
5059 5059_87 22802
5059 5059_90 22860
5059 5059_95 22904
5059 5059_100 22916
5059 5059_105 22925
5059 5059_110 22943
5059 5059_115 22957
5059 5059_120 22971
5059 5059_125 22984
5059 5059_130 23034
5059 5059_135 23052
5059 5059_140 23073
5059 5059_145 23085
5059 5059_150 23134
5059 5059_155 23172
5059 5059_160 23186
5059 5059_165 23211
5059 5059_170 23219
5059 5059_175 23262
5059 5059_180 23296
5059 5059_182 23320
5059 5059_185 23520
5059 5059_190 23571
5059 5059_195 23586
5059 5059_200 23600
5059 5059_205 23636
5059 5059_210 23672
5059 5059_215 23699
5059 5059_220 23731
5059 5059_225 23746
5059 5059_230 23778
5059 5059_235 23806
5059 5059_240 23849
5059 5059_245 23874
5059 5059_247 23902
5059 5059_250 24060
5059 5059_255 24113
5059 5059_260 24125
5059 5059_265 24165
5059 5059_270 24200
5059 5059_275 24232
5059 5059_280 24271
5059 5059_285 24290
5059 5059_290 24307
5059 5059_295 24315
5059 5059_300 24336
5059 5059_305 24367
5059 5059_310 24395
5059 5059_312 24409
5059 5059_315 24480
5059 5059_320 24543
5059 5059_325 24553
5059 5059_330 24577
5059 5059_335 24609
5059 5059_340 24642
5059 5059_345 24674
5059 5059_350 24704
5059 5059_355 24719
5059 5059_360 24735
5059 5059_365 24743
5059 5059_370 24766
5059 5059_375 24798
5059 5059_380 24830
5059 5059_385 24845
5059 5059_390 24859
5059 5059_395 24888
5059 5059_400 24924
5059 5059_402 24952
5059 5059_405 25140
5059 5059_410 25183
5059 5059_415 25200
5059 5059_420 25244
5059 5059_425 25258
5059 5059_430 25278
5059 5059_435 25285
5059 5059_440 25327
5059 5059_445 25361
5059 5059_450 25399
5059 5059_455 25423
5059 5059_460 25432
5059 5059_465 25451
5059 5059_470 25488
5059 5059_475 25503
5059 5059_480 25560
5059 5059_485 25605
5059 5059_490 25650
5059 5059_495 25672
5059 5059_500 25689
5059 5059_505 25703
5059 5059_510 25737
5059 5059_515 25800
5059 5059_517 25818
5059 5059_520 25980
5059 5059_525 26044
5059 5059_530 26054
5059 5059_535 26109
5059 5059_540 26124
5059 5059_545 26145
5059 5059_550 26151
5059 5059_555 26214
5059 5059_560 26299
5059 5059_565 26312
5059 5059_570 26332
5059 5059_575 26338
5059 5059_580 26372
5059 5059_582 26393
5059 5059_585 26580
5059 5059_590 26631
5059 5059_595 26643
5059 5059_600 26665
5059 5059_605 26705
5059 5059_610 26765
5059 5059_612 26781
5059 5059_615 26839
5059 5059_620 26899
5059 5059_625 26937
5059 5059_630 26965
5059 5059_635 26973
5059 5059_640 27007
5059 5059_645 27041
5059 5059_647 27066
5059 5059_650 27240
5059 5059_655 27300
5059 5059_660 27312
5059 5059_665 27327
5059 5059_670 27360
5059 5059_675 27393
5059 5059_680 27399
5059 5059_685 27439
5059 5059_690 27478
5059 5059_695 27520
5059 5059_700 27560
5059 5059_705 27599
5059 5059_710 27651
5059 5059_715 27668
5059 5059_720 27691
5061 5061_1 25620
5061 5061_5 25920
5061 5061_10 25961
5061 5061_15 25987
5061 5061_20 25996
5061 5061_25 26017
5061 5061_30 26037
5061 5061_35 26049
5061 5061_40 26070
5061 5061_45 26091
5061 5061_50 26113
5061 5061_55 26135
5061 5061_60 26169
5061 5061_65 26214
5061 5061_70 26258
5061 5061_75 26274
5061 5061_80 26295
5061 5061_85 26310
5061 5061_87 26402
5061 5061_90 26460
5061 5061_95 26504
5061 5061_100 26516
5061 5061_105 26525
5061 5061_110 26543
5061 5061_115 26557
5061 5061_120 26571
5061 5061_125 26584
5061 5061_130 26634
5061 5061_135 26652
5061 5061_140 26673
5061 5061_145 26685
5061 5061_150 26734
5061 5061_155 26772
5061 5061_160 26786
5061 5061_165 26811
5061 5061_170 26819
5061 5061_175 26862
5061 5061_180 26896
5061 5061_182 26920
5061 5061_185 27120
5061 5061_190 27171
5061 5061_195 27186
5061 5061_200 27200
5061 5061_205 27236
5061 5061_210 27272
5061 5061_215 27299
5061 5061_220 27331
5061 5061_225 27346
5061 5061_230 27378
5061 5061_235 27406
5061 5061_240 27449
5061 5061_245 27474
5061 5061_247 27502
5061 5061_250 27660
5061 5061_255 27713
5061 5061_260 27725
5061 5061_265 27765
5061 5061_270 27800
5061 5061_275 27832
5061 5061_280 27871
5061 5061_285 27890
5061 5061_290 27907
5061 5061_295 27915
5061 5061_300 27936
5061 5061_305 27967
5061 5061_310 27995
5061 5061_312 28009
5061 5061_315 28080
5061 5061_320 28143
5061 5061_325 28153
5061 5061_330 28177
5061 5061_335 28209
5061 5061_340 28242
5061 5061_345 28274
5061 5061_350 28304
5061 5061_355 28319
5061 5061_360 28335
5061 5061_365 28343
5061 5061_370 28366
5061 5061_375 28398
5061 5061_380 28430
5061 5061_385 28445
5061 5061_390 28459
5061 5061_395 28488
5061 5061_400 28524
5061 5061_402 28552
5061 5061_405 28740
5061 5061_410 28783
5061 5061_415 28800
5061 5061_420 28844
5061 5061_425 28858
5061 5061_430 28878
5061 5061_435 28885
5061 5061_440 28927
5061 5061_445 28961
5061 5061_450 28999
5061 5061_455 29023
5061 5061_460 29032
5061 5061_465 29051
5061 5061_470 29088
5061 5061_475 29103
5061 5061_480 29160
5061 5061_485 29205
5061 5061_490 29250
5061 5061_495 29272
5061 5061_500 29289
5061 5061_505 29303
5061 5061_510 29337
5061 5061_515 29400
5061 5061_517 29418
5061 5061_520 29580
5061 5061_525 29644
5061 5061_530 29654
5061 5061_535 29709
5061 5061_540 29724
5061 5061_545 29745
5061 5061_550 29751
5061 5061_555 29814
5061 5061_560 29899
5061 5061_565 29912
5061 5061_570 29932
5061 5061_575 29938
5061 5061_580 29972
5061 5061_582 29993
5061 5061_585 30180
5061 5061_590 30231
5061 5061_595 30243
5061 5061_600 30265
5061 5061_605 30305
5061 5061_610 30365
5061 5061_612 30381
5061 5061_615 30439
5061 5061_620 30499
5061 5061_625 30537
5061 5061_630 30565
5061 5061_635 30573
5061 5061_640 30607
5061 5061_645 30641
5061 5061_647 30666
5061 5061_650 30840
5061 5061_655 30900
5061 5061_660 30912
5061 5061_665 30927
5061 5061_670 30960
5061 5061_675 30993
5061 5061_680 30999
5061 5061_685 31039
5061 5061_690 31078
5061 5061_695 31120
5061 5061_700 31160
5061 5061_705 31199
5061 5061_710 31251
5061 5061_715 31268
5061 5061_720 31291
2623 2623_1 23460
2623 2623_5 23700
2623 2623_10 23751
2623 2623_15 23776
2623 2623_20 23785
2623 2623_25 23807
2623 2623_30 23827
2623 2623_35 23839
2623 2623_40 23861
2623 2623_45 23883
2623 2623_50 23907
2623 2623_55 23931
2623 2623_60 23965
2623 2623_65 24010
2623 2623_70 24054
2623 2623_75 24070
2623 2623_80 24091
2623 2623_85 24109
2623 2623_87 24132
2623 2623_90 24300
2623 2623_150 24356
2623 2623_155 24373
2623 2623_160 24411
2623 2623_165 24444
2623 2623_170 24484
2623 2623_175 24507
2623 2623_180 24527
2623 2623_185 24547
2623 2623_190 24556
2623 2623_195 24582
2623 2623_200 24625
2623 2623_205 24649
2623 2623_210 24663
2623 2623_215 24675
2623 2623_220 24696
2623 2623_225 24731
2623 2623_230 24768
2623 2623_235 24804
2623 2623_240 24819
2623 2623_245 24849
2623 2623_250 24858
2623 2623_255 24876
2623 2623_257 24904
2623 2623_260 25020
2623 2623_265 25091
2623 2623_270 25103
2623 2623_275 25120
2623 2623_280 25134
2623 2623_285 25157
2623 2623_290 25170
2623 2623_295 25185
2623 2623_300 25320
2623 2623_305 25383
2625 2625_1 25200
2625 2625_5 25440
2625 2625_10 25491
2625 2625_15 25516
2625 2625_20 25525
2625 2625_25 25547
2625 2625_30 25567
2625 2625_35 25579
2625 2625_40 25601
2625 2625_45 25623
2625 2625_50 25647
2625 2625_55 25671
2625 2625_60 25705
2625 2625_65 25750
2625 2625_70 25794
2625 2625_75 25810
2625 2625_80 25831
2625 2625_85 25849
2625 2625_87 25872
2625 2625_90 26040
2625 2625_150 26096
2625 2625_155 26113
2625 2625_160 26151
2625 2625_165 26184
2625 2625_170 26224
2625 2625_175 26247
2625 2625_180 26267
2625 2625_185 26287
2625 2625_190 26296
2625 2625_195 26322
2625 2625_200 26365
2625 2625_205 26389
2625 2625_210 26403
2625 2625_215 26415
2625 2625_220 26436
2625 2625_225 26471
2625 2625_230 26508
2625 2625_235 26544
2625 2625_240 26559
2625 2625_245 26589
2625 2625_250 26598
2625 2625_255 26616
2625 2625_260 26643
2625 2625_265 26672
2625 2625_270 26680
2625 2625_275 26695
2625 2625_280 26709
2625 2625_285 26732
2625 2625_290 26745
2625 2625_295 26760
2625 2625_300 26940
2625 2625_305 27003
2627 2627_1 27060
2627 2627_5 27300
2627 2627_10 27351
2627 2627_15 27376
2627 2627_20 27385
2627 2627_25 27407
2627 2627_30 27427
2627 2627_35 27439
2627 2627_40 27461
2627 2627_45 27483
2627 2627_50 27507
2627 2627_55 27531
2627 2627_60 27565
2627 2627_65 27610
2627 2627_70 27654
2627 2627_75 27670
2627 2627_80 27691
2627 2627_85 27709
2627 2627_87 27732
2627 2627_90 27900
2627 2627_150 27956
2627 2627_155 27973
2627 2627_160 28011
2627 2627_165 28044
2627 2627_170 28084
2627 2627_175 28107
2627 2627_180 28127
2627 2627_185 28147
2627 2627_190 28156
2627 2627_195 28182
2627 2627_200 28225
2627 2627_205 28249
2627 2627_210 28263
2627 2627_215 28275
2627 2627_220 28296
2627 2627_225 28331
2627 2627_230 28368
2627 2627_235 28404
2627 2627_240 28419
2627 2627_245 28449
2627 2627_250 28458
2627 2627_255 28476
2627 2627_257 28504
2627 2627_260 28620
2627 2627_265 28691
2627 2627_270 28703
2627 2627_275 28720
2627 2627_280 28734
2627 2627_285 28757
2627 2627_290 28770
2627 2627_295 28785
2627 2627_300 28920
2627 2627_305 28983
2629 2629_1 28800
2629 2629_5 29040
2629 2629_10 29091
2629 2629_15 29116
2629 2629_20 29125
2629 2629_25 29147
2629 2629_30 29167
2629 2629_35 29179
2629 2629_40 29201
2629 2629_45 29223
2629 2629_50 29247
2629 2629_55 29271
2629 2629_60 29305
2629 2629_65 29350
2629 2629_70 29394
2629 2629_75 29410
2629 2629_80 29431
2629 2629_85 29449
2629 2629_87 29472
2629 2629_90 29640
2629 2629_150 29696
2629 2629_155 29713
2629 2629_160 29751
2629 2629_165 29784
2629 2629_170 29824
2629 2629_175 29847
2629 2629_180 29867
2629 2629_185 29887
2629 2629_190 29896
2629 2629_195 29922
2629 2629_200 29965
2629 2629_205 29989
2629 2629_210 30003
2629 2629_215 30015
2629 2629_220 30036
2629 2629_225 30071
2629 2629_230 30108
2629 2629_235 30144
2629 2629_240 30159
2629 2629_245 30189
2629 2629_250 30198
2629 2629_255 30216
2629 2629_260 30243
2629 2629_265 30272
2629 2629_270 30280
2629 2629_275 30295
2629 2629_280 30309
2629 2629_285 30332
2629 2629_290 30345
2629 2629_295 30482
2629 2629_300 30540
2629 2629_305 30603
2631 2631_1 30660
2631 2631_5 30900
2631 2631_10 30951
2631 2631_15 30976
2631 2631_20 30985
2631 2631_25 31007
2631 2631_30 31027
2631 2631_35 31039
2631 2631_40 31061
2631 2631_45 31083
2631 2631_50 31107
2631 2631_55 31131
2631 2631_60 31165
2631 2631_65 31210
2631 2631_70 31254
2631 2631_75 31270
2631 2631_80 31291
2631 2631_85 31309
2631 2631_87 31332
2631 2631_90 31500
2631 2631_150 31556
2631 2631_155 31573
2631 2631_160 31611
2631 2631_165 31644
2631 2631_170 31684
2631 2631_175 31707
2631 2631_180 31727
2631 2631_185 31747
2631 2631_190 31756
2631 2631_195 31782
2631 2631_200 31825
2631 2631_205 31849
2631 2631_210 31863
2631 2631_215 31875
2631 2631_220 31896
2631 2631_225 31931
2631 2631_230 31968
2631 2631_235 32004
2631 2631_240 32019
2631 2631_245 32049
2631 2631_250 32058
2631 2631_255 32076
2631 2631_257 32104
2631 2631_260 32220
2631 2631_265 32291
2631 2631_270 32303
2631 2631_275 32320
2631 2631_280 32334
2631 2631_285 32357
2631 2631_290 32370
2631 2631_295 32385
2631 2631_300 32520
2631 2631_305 32583
2633 2633_1 32400
2633 2633_5 32640
2633 2633_10 32691
2633 2633_15 32716
2633 2633_20 32725
2633 2633_25 32747
2633 2633_30 32767
2633 2633_35 32779
2633 2633_40 32801
2633 2633_45 32823
2633 2633_50 32847
2633 2633_55 32871
2633 2633_60 32905
2633 2633_65 32950
2633 2633_70 32994
2633 2633_75 33010
2633 2633_80 33031
2633 2633_85 33049
2633 2633_87 33072
2633 2633_90 33240
2633 2633_150 33296
2633 2633_155 33313
2633 2633_160 33351
2633 2633_165 33384
2633 2633_170 33424
2633 2633_175 33447
2633 2633_180 33467
2633 2633_185 33487
2633 2633_190 33496
2633 2633_195 33522
2633 2633_200 33565
2633 2633_205 33589
2633 2633_210 33603
2633 2633_215 33615
2633 2633_220 33636
2633 2633_225 33671
2633 2633_230 33708
2633 2633_235 33744
2633 2633_240 33759
2633 2633_245 33789
2633 2633_250 33798
2633 2633_255 33816
2633 2633_260 33843
2633 2633_265 33872
2633 2633_270 33880
2633 2633_275 33895
2633 2633_280 33909
2633 2633_285 33932
2633 2633_290 33945
2633 2633_295 34082
2633 2633_300 34140
2633 2633_305 34203
559 559_1 27120
559 559_5 27420
559 559_10 27463
559 559_15 27489
559 559_20 27504
559 559_25 27526
559 559_30 27546
559 559_35 27558
559 559_40 27581
559 559_45 27603
559 559_50 27626
559 559_55 27650
559 559_60 27684
559 559_65 27729
559 559_70 27773
559 559_75 27789
559 559_80 27810
559 559_85 27825
559 559_90 27842
559 559_95 27857
559 559_100 27869
559 559_105 27878
559 559_110 27896
559 559_115 27910
559 559_120 27924
559 559_125 27937
559 559_130 27987
559 559_135 28005
559 559_140 28026
559 559_145 28037
559 559_150 28087
559 559_155 28125
559 559_160 28139
559 559_165 28165
559 559_170 28173
559 559_175 28215
559 559_180 28250
559 559_185 28272
559 559_190 28292
559 559_195 28308
559 559_200 28322
559 559_205 28358
559 559_210 28394
559 559_215 28421
559 559_220 28452
559 559_225 28468
559 559_230 28500
559 559_235 28528
559 559_240 28571
559 559_245 28596
559 559_250 28617
559 559_255 28638
559 559_260 28650
559 559_265 28690
559 559_270 28725
559 559_275 28757
559 559_280 28796
559 559_285 28814
559 559_290 28831
559 559_295 28839
559 559_300 28860
559 559_305 28891
559 559_310 28919
559 559_315 28931
559 559_320 28953
559 559_325 28962
559 559_330 28986
559 559_335 29018
559 559_340 29050
559 559_345 29082
559 559_350 29112
559 559_355 29126
559 559_360 29143
559 559_365 29151
559 559_370 29174
559 559_375 29206
559 559_380 29237
559 559_385 29253
559 559_390 29266
559 559_395 29295
559 559_400 29331
559 559_405 29355
559 559_410 29376
559 559_415 29393
559 559_420 29439
559 559_425 29453
559 559_430 29475
559 559_435 29481
559 559_440 29525
559 559_445 29558
559 559_450 29597
559 559_455 29621
559 559_460 29629
559 559_465 29648
559 559_470 29685
559 559_475 29701
559 559_480 29758
559 559_485 29803
559 559_490 29849
559 559_495 29870
559 559_500 29888
559 559_505 29902
559 559_510 29936
559 559_515 30000
559 559_520 30015
559 559_525 30040
559 559_530 30050
559 559_535 30107
559 559_540 30121
559 559_545 30142
559 559_550 30148
559 559_555 30212
559 559_560 30296
559 559_565 30310
559 559_570 30330
559 559_575 30336
559 559_580 30372
559 559_582 30392
559 559_585 30780
559 559_590 30845
559 559_595 30861
559 559_600 30882
559 559_605 30928
559 559_610 30989
559 559_615 31002
559 559_620 31021
559 559_625 31056
559 559_630 31085
559 559_635 31094
559 559_640 31129
559 559_645 31164
559 559_647 31189
559 559_650 31380
559 559_655 31455
559 559_660 31469
559 559_665 31485
559 559_670 31520
559 559_675 31553
559 559_680 31558
559 559_685 31598
559 559_690 31637
559 559_695 31678
559 559_700 31719
559 559_705 31757
559 559_710 31809
559 559_715 31826
559 559_720 31849
1255 1255_1 30720
1255 1255_5 31020
1255 1255_10 31063
1255 1255_15 31089
1255 1255_20 31104
1255 1255_25 31126
1255 1255_30 31146
1255 1255_35 31158
1255 1255_40 31181
1255 1255_45 31203
1255 1255_50 31226
1255 1255_55 31250
1255 1255_60 31284
1255 1255_65 31329
1255 1255_70 31373
1255 1255_75 31389
1255 1255_80 31410
1255 1255_85 31425
1255 1255_90 31442
1255 1255_95 31457
1255 1255_100 31469
1255 1255_105 31478
1255 1255_110 31496
1255 1255_115 31510
1255 1255_120 31524
1255 1255_125 31537
1255 1255_130 31587
1255 1255_135 31605
1255 1255_140 31626
1255 1255_145 31637
1255 1255_150 31687
1255 1255_155 31725
1255 1255_160 31739
1255 1255_165 31765
1255 1255_170 31773
1255 1255_175 31815
1255 1255_180 31850
1255 1255_185 31872
1255 1255_190 31892
1255 1255_195 31908
1255 1255_200 31922
1255 1255_205 31958
1255 1255_210 31994
1255 1255_215 32021
1255 1255_220 32052
1255 1255_225 32068
1255 1255_230 32100
1255 1255_235 32128
1255 1255_240 32171
1255 1255_245 32196
1255 1255_250 32217
1255 1255_255 32238
1255 1255_260 32250
1255 1255_265 32290
1255 1255_270 32325
1255 1255_275 32357
1255 1255_280 32396
1255 1255_285 32414
1255 1255_290 32431
1255 1255_295 32439
1255 1255_300 32460
1255 1255_305 32491
1255 1255_310 32519
1255 1255_315 32531
1255 1255_320 32553
1255 1255_325 32562
1255 1255_330 32586
1255 1255_335 32618
1255 1255_340 32650
1255 1255_345 32682
1255 1255_350 32712
1255 1255_355 32726
1255 1255_360 32743
1255 1255_365 32751
1255 1255_370 32774
1255 1255_375 32806
1255 1255_380 32837
1255 1255_385 32853
1255 1255_390 32866
1255 1255_395 32895
1255 1255_400 32931
1255 1255_405 32955
1255 1255_410 32976
1255 1255_415 32993
1255 1255_420 33039
1255 1255_425 33053
1255 1255_430 33075
1255 1255_435 33081
1255 1255_440 33125
1255 1255_445 33158
1255 1255_450 33197
1255 1255_455 33221
1255 1255_460 33229
1255 1255_465 33248
1255 1255_470 33285
1255 1255_475 33301
1255 1255_480 33358
1255 1255_485 33403
1255 1255_490 33449
1255 1255_495 33470
1255 1255_500 33488
1255 1255_505 33502
1255 1255_510 33536
1255 1255_515 33600
1255 1255_520 33615
1255 1255_525 33640
1255 1255_530 33650
1255 1255_535 33707
1255 1255_540 33721
1255 1255_545 33742
1255 1255_550 33748
1255 1255_555 33812
1255 1255_560 33896
1255 1255_565 33910
1255 1255_570 33930
1255 1255_575 33936
1255 1255_580 33972
1255 1255_582 33992
1255 1255_585 34380
1255 1255_590 34445
1255 1255_595 34461
1255 1255_600 34482
1255 1255_605 34528
1255 1255_610 34589
1255 1255_615 34602
1255 1255_620 34621
1255 1255_625 34656
1255 1255_630 34685
1255 1255_635 34694
1255 1255_640 34729
1255 1255_645 34764
1255 1255_647 34789
1255 1255_650 34980
1255 1255_655 35055
1255 1255_660 35069
1255 1255_665 35085
1255 1255_670 35120
1255 1255_675 35153
1255 1255_680 35158
1255 1255_685 35198
1255 1255_690 35237
1255 1255_695 35278
1255 1255_700 35319
1255 1255_705 35357
1255 1255_710 35409
1255 1255_715 35426
1255 1255_720 35449
163 163_1 30900
163 163_5 31200
163 163_10 31243
163 163_15 31269
163 163_20 31284
163 163_25 31306
163 163_30 31326
163 163_35 31338
163 163_40 31361
163 163_45 31383
163 163_50 31406
163 163_55 31430
163 163_60 31464
163 163_65 31509
163 163_70 31553
163 163_75 31569
163 163_80 31590
163 163_85 31605
163 163_90 31622
163 163_95 31637
163 163_100 31649
163 163_105 31658
163 163_110 31676
163 163_115 31690
163 163_120 31704
163 163_125 31717
163 163_130 31767
163 163_135 31785
163 163_140 31806
163 163_145 31817
163 163_150 31867
163 163_155 31905
163 163_160 31919
163 163_165 31945
163 163_170 31953
163 163_175 31995
163 163_180 32030
163 163_185 32052
163 163_190 32072
163 163_195 32088
163 163_200 32102
163 163_205 32138
163 163_210 32174
163 163_215 32201
163 163_220 32232
163 163_225 32248
163 163_230 32280
163 163_235 32308
163 163_240 32351
163 163_245 32376
163 163_250 32397
163 163_255 32418
163 163_260 32430
163 163_265 32470
163 163_270 32505
163 163_275 32537
163 163_280 32576
163 163_285 32594
163 163_290 32611
163 163_295 32619
163 163_300 32640
163 163_305 32671
163 163_310 32699
163 163_315 32711
163 163_320 32733
163 163_325 32742
163 163_330 32766
163 163_335 32798
163 163_340 32830
163 163_345 32862
163 163_350 32892
163 163_355 32906
163 163_360 32923
163 163_365 32931
163 163_370 32954
163 163_375 32986
163 163_380 33017
163 163_385 33033
163 163_390 33046
163 163_395 33075
163 163_400 33111
163 163_405 33135
163 163_410 33156
163 163_415 33173
163 163_420 33219
163 163_425 33233
163 163_430 33255
163 163_435 33261
163 163_440 33305
163 163_445 33338
163 163_450 33377
163 163_455 33401
163 163_460 33409
163 163_465 33428
163 163_470 33465
163 163_475 33481
163 163_480 33538
163 163_485 33583
163 163_490 33629
163 163_495 33650
163 163_500 33668
163 163_505 33682
163 163_510 33716
163 163_515 33780
163 163_520 33795
163 163_525 33820
163 163_530 33830
163 163_535 33887
163 163_540 33901
163 163_545 33922
163 163_550 33928
163 163_555 33992
163 163_560 34076
163 163_565 34090
163 163_570 34110
163 163_575 34116
163 163_580 34152
163 163_582 34172
18223 18223_1 24300
18223 18223_5 24420
18223 18223_10 24452
18223 18223_15 24460
18223 18223_20 24474
18223 18223_25 24494
18223 18223_30 24514
18223 18223_35 24525
18223 18223_37 24537
18223 18223_40 24595
18223 18223_45 24641
18223 18223_50 24660
18223 18223_52 24722
18223 18223_55 24780
18223 18223_60 24826
18223 18223_65 24852
18223 18223_70 24869
18223 18223_75 24876
18223 18223_80 24894
18223 18223_85 24903
18223 18223_90 24913
18223 18223_95 24946
18223 18223_100 24974
18223 18223_105 24993
18223 18223_110 25006
18223 18223_115 25013
18223 18223_120 25024
18223 18223_125 25049
18223 18223_130 25080
18223 18223_135 25094
18223 18223_140 25100
18223 18223_142 25120
18223 18223_145 25260
18223 18223_150 25311
18223 18223_155 25324
18223 18223_160 25333
18223 18223_165 25351
18223 18223_170 25365
18223 18223_175 25379
18223 18223_180 25393
18223 18223_185 25442
18223 18223_187 25462
18223 18223_190 25520
18223 18223_195 25579
18223 18223_200 25593
18223 18223_205 25643
18223 18223_210 25681
18223 18223_215 25695
18223 18223_220 25720
18223 18223_225 25728
18223 18223_230 25770
18223 18223_235 25805
18223 18223_237 25862
18223 18223_240 25920
18223 18223_245 25974
18223 18223_250 25990
18223 18223_255 26004
18223 18223_260 26040
18223 18223_262 26076
18223 18223_265 26134
18223 18223_270 26200
18223 18223_275 26232
18223 18223_280 26248
18223 18223_285 26280
18223 18223_290 26308
18223 18223_295 26351
18223 18223_300 26377
18223 18223_302 26404
18223 18223_305 26462
18223 18223_310 26521
18223 18223_315 26534
18223 18223_320 26574
18223 18223_322 26610
18223 18223_325 26668
18223 18223_330 26740
18223 18223_335 26782
18223 18223_337 26804
18223 18223_340 26862
18223 18223_345 26920
18223 18223_350 26932
18223 18223_355 26956
18223 18223_360 26987
18223 18223_365 27015
18223 18223_370 27029
18223 18223_375 27087
18223 18223_380 27154
18223 18223_385 27165
18223 18223_390 27191
18223 18223_395 27223
18223 18223_400 27255
18223 18223_405 27287
18223 18223_410 27317
18223 18223_415 27331
18223 18223_420 27348
18223 18223_425 27355
18223 18223_430 27379
18223 18223_435 27411
18223 18223_440 27443
18223 18223_445 27458
18223 18223_450 27471
18223 18223_455 27501
18223 18223_460 27542
18223 18223_465 27571
18225 18225_1 26100
18225 18225_5 26220
18225 18225_10 26252
18225 18225_15 26260
18225 18225_20 26274
18225 18225_25 26294
18225 18225_30 26314
18225 18225_35 26325
18225 18225_37 26337
18225 18225_40 26395
18225 18225_45 26441
18225 18225_50 26460
18225 18225_52 26522
18225 18225_55 26580
18225 18225_60 26626
18225 18225_65 26652
18225 18225_70 26669
18225 18225_75 26676
18225 18225_80 26694
18225 18225_85 26703
18225 18225_90 26713
18225 18225_95 26746
18225 18225_100 26774
18225 18225_105 26793
18225 18225_110 26806
18225 18225_115 26813
18225 18225_120 26824
18225 18225_125 26849
18225 18225_130 26880
18225 18225_135 26894
18225 18225_140 26900
18225 18225_142 26920
18225 18225_145 27060
18225 18225_150 27111
18225 18225_155 27124
18225 18225_160 27133
18225 18225_165 27151
18225 18225_170 27165
18225 18225_175 27179
18225 18225_180 27193
18225 18225_185 27242
18225 18225_187 27262
18225 18225_190 27320
18225 18225_195 27379
18225 18225_200 27393
18225 18225_205 27443
18225 18225_210 27481
18225 18225_215 27495
18225 18225_220 27520
18225 18225_225 27528
18225 18225_230 27570
18225 18225_235 27605
18225 18225_237 27662
18225 18225_240 27720
18225 18225_245 27774
18225 18225_250 27790
18225 18225_255 27804
18225 18225_260 27840
18225 18225_262 27876
18225 18225_265 27934
18225 18225_270 28000
18225 18225_275 28032
18225 18225_280 28048
18225 18225_285 28080
18225 18225_290 28108
18225 18225_295 28151
18225 18225_300 28177
18225 18225_302 28204
18225 18225_305 28262
18225 18225_310 28321
18225 18225_315 28334
18225 18225_320 28374
18225 18225_322 28410
18225 18225_325 28468
18225 18225_330 28540
18225 18225_335 28582
18225 18225_337 28604
18225 18225_340 28662
18225 18225_345 28720
18225 18225_350 28732
18225 18225_355 28756
18225 18225_360 28787
18225 18225_365 28815
18225 18225_370 28829
18225 18225_375 28887
18225 18225_380 28954
18225 18225_385 28965
18225 18225_390 28991
18225 18225_395 29023
18225 18225_400 29055
18225 18225_405 29087
18225 18225_410 29117
18225 18225_415 29131
18225 18225_420 29148
18225 18225_425 29155
18225 18225_430 29179
18225 18225_435 29211
18225 18225_440 29243
18225 18225_445 29258
18225 18225_450 29271
18225 18225_455 29301
18225 18225_460 29342
18225 18225_465 29371
18224 18224_305 22440
18224 18224_310 22740
18224 18224_315 22775
18224 18224_320 22794
18224 18224_325 22816
18224 18224_330 22845
18224 18224_335 22862
18224 18224_340 22874
18224 18224_345 22884
18224 18224_350 22913
18224 18224_355 22943
18224 18224_360 22973
18224 18224_365 22987
18224 18224_370 23003
18224 18224_375 23011
18224 18224_380 23035
18224 18224_385 23069
18224 18224_390 23103
18224 18224_395 23135
18224 18224_400 23164
18224 18224_402 23186
18224 18224_405 23220
18224 18224_410 23283
18224 18224_415 23295
18224 18224_420 23340
18224 18224_425 23374
18224 18224_430 23399
18224 18224_435 23433
18224 18224_440 23486
18224 18224_445 23495
18224 18224_450 23518
18224 18224_455 23554
18224 18224_460 23588
18224 18224_465 23672
18224 18224_470 23696
18224 18224_475 23726
18224 18224_480 23747
18224 18224_485 23880
18224 18224_490 23940
18224 18224_495 23961
18224 18224_500 23974
18224 18224_505 24000
18224 18224_510 24031
18224 18224_515 24079
18224 18224_520 24099
18224 18224_525 24117
18224 18224_530 24151
18224 18224_535 24228
18224 18224_540 24276
18224 18224_545 24308
18224 18224_550 24331
18224 18224_555 24446
18224 18224_560 24480
18224 18224_565 24533
18224 18224_570 24549
18224 18224_575 24563
18224 18224_580 24591
18224 18224_585 24628
18224 18224_590 24642
18224 18224_595 24666
18224 18224_600 24673
18224 18224_605 24719
18224 18224_610 24762
18224 18224_615 24806
18224 18224_620 24840
18224 18224_625 24897
18224 18224_630 24911
18224 18224_635 24947
18224 18224_640 24979
18224 18224_645 25007
18224 18224_650 25022
18224 18224_655 25034
18224 18224_660 25054
18224 18224_665 25140
18224 18224_670 25186
18224 18224_675 25201
18224 18224_680 25210
18224 18224_685 25219
18224 18224_690 25274
18224 18224_695 25309
18224 18224_700 25341
18224 18224_705 25383
18224 18224_710 25390
18224 18224_715 25419
18224 18224_720 25459
18224 18224_725 25468
18224 18224_730 25481
18224 18224_735 25496
18224 18224_740 25511
18224 18224_745 25521
18224 18224_750 25552
18224 18224_755 25586
18224 18224_760 25632
18224 18224_765 25650
18224 18224_770 25669
18224 18224_775 25703
18224 18224_780 25751
18224 18224_785 25772
18224 18224_790 25790
18224 18224_795 25801
18224 18224_800 25814
18224 18224_805 25827
18224 18224_810 25838
18226 18226_305 24240
18226 18226_310 24540
18226 18226_315 24575
18226 18226_320 24594
18226 18226_325 24616
18226 18226_330 24645
18226 18226_335 24662
18226 18226_340 24674
18226 18226_345 24684
18226 18226_350 24713
18226 18226_355 24743
18226 18226_360 24773
18226 18226_365 24787
18226 18226_370 24803
18226 18226_375 24811
18226 18226_380 24835
18226 18226_385 24869
18226 18226_390 24903
18226 18226_395 24935
18226 18226_400 24964
18226 18226_402 24986
18226 18226_405 25020
18226 18226_410 25083
18226 18226_415 25095
18226 18226_420 25140
18226 18226_425 25174
18226 18226_430 25199
18226 18226_435 25233
18226 18226_440 25286
18226 18226_445 25295
18226 18226_450 25318
18226 18226_455 25354
18226 18226_460 25388
18226 18226_465 25472
18226 18226_470 25496
18226 18226_475 25526
18226 18226_480 25547
18226 18226_485 25680
18226 18226_490 25740
18226 18226_495 25761
18226 18226_500 25774
18226 18226_505 25800
18226 18226_510 25831
18226 18226_515 25879
18226 18226_520 25899
18226 18226_525 25917
18226 18226_530 25951
18226 18226_535 26028
18226 18226_540 26076
18226 18226_545 26108
18226 18226_550 26131
18226 18226_555 26246
18226 18226_560 26280
18226 18226_565 26333
18226 18226_570 26349
18226 18226_575 26363
18226 18226_580 26391
18226 18226_585 26428
18226 18226_590 26442
18226 18226_595 26466
18226 18226_600 26473
18226 18226_605 26519
18226 18226_610 26562
18226 18226_615 26606
18226 18226_620 26640
18226 18226_625 26697
18226 18226_630 26711
18226 18226_635 26747
18226 18226_640 26779
18226 18226_645 26807
18226 18226_650 26822
18226 18226_655 26834
18226 18226_660 26854
18226 18226_665 26940
18226 18226_670 26986
18226 18226_675 27001
18226 18226_680 27010
18226 18226_685 27019
18226 18226_690 27074
18226 18226_695 27109
18226 18226_700 27141
18226 18226_705 27183
18226 18226_710 27190
18226 18226_715 27219
18226 18226_720 27259
18226 18226_725 27268
18226 18226_730 27281
18226 18226_735 27296
18226 18226_740 27311
18226 18226_745 27321
18226 18226_750 27352
18226 18226_755 27386
18226 18226_760 27432
18226 18226_765 27450
18226 18226_770 27469
18226 18226_775 27503
18226 18226_780 27551
18226 18226_785 27572
18226 18226_790 27590
18226 18226_795 27601
18226 18226_800 27614
18226 18226_805 27627
18226 18226_810 27638
18823 18823_500 0
18823 18823_501 24892
18823 18823_502 24892
18823 18823_503 24892
18823 18823_504 24892
18823 18823_505 24892
18823 18823_1 23700
18823 18823_5 23820
18823 18823_10 23852
18823 18823_15 23860
18823 18823_20 23874
18823 18823_25 23894
18823 18823_30 23914
18823 18823_35 23925
18823 18823_37 23939
18823 18823_40 23973
18823 18823_45 24017
18823 18823_50 24037
18823 18823_52 24146
18823 18823_55 24180
18823 18823_60 24227
18823 18823_65 24257
18823 18823_70 24275
18823 18823_72 24283
18823 18823_75 24317
18823 18823_80 24371
18823 18823_85 24383
18823 18823_90 24393
18823 18823_95 24426
18823 18823_100 24454
18823 18823_102 24479
18823 18823_105 24513
18823 18823_110 24558
18823 18823_115 24567
18823 18823_120 24580
18823 18823_122 24605
18823 18823_125 24639
18823 18823_130 24765
18823 18823_135 24781
18823 18823_140 24787
18823 18823_142 24806
18823 18823_145 24840
18823 18823_150 24892
18823 18823_155 24906
18823 18823_160 24914
18823 18823_165 24933
18823 18823_170 24947
18823 18823_172 24969
18823 18823_175 25003
18823 18823_180 25048
18823 18823_185 25100
18823 18823_187 25119
18823 18823_190 25153
18823 18823_195 25213
18823 18823_200 25227
18823 18823_205 25276
18823 18823_210 25314
18823 18823_212 25329
18823 18823_215 25363
18823 18823_220 25428
18823 18823_225 25437
18823 18823_230 25479
18823 18823_235 25514
18823 18823_237 25538
18823 18823_240 25620
18823 18823_245 25674
18823 18823_250 25690
18823 18823_255 25704
18823 18823_260 25741
18823 18823_262 25777
18823 18823_265 25811
18823 18823_270 25877
18823 18823_275 25910
18823 18823_277 25925
18823 18823_280 25959
18823 18823_285 26032
18823 18823_287 26061
18823 18823_290 26095
18823 18823_295 26178
18823 18823_300 26217
18823 18823_305 26256
18825 18825_500 0
18825 18825_501 26692
18825 18825_502 26692
18825 18825_503 26692
18825 18825_504 26692
18825 18825_505 26692
18825 18825_1 25500
18825 18825_5 25620
18825 18825_10 25652
18825 18825_15 25660
18825 18825_20 25674
18825 18825_25 25694
18825 18825_30 25714
18825 18825_35 25725
18825 18825_37 25739
18825 18825_40 25773
18825 18825_45 25817
18825 18825_50 25837
18825 18825_52 25946
18825 18825_55 25980
18825 18825_60 26027
18825 18825_65 26057
18825 18825_70 26075
18825 18825_72 26083
18825 18825_75 26117
18825 18825_80 26171
18825 18825_85 26183
18825 18825_90 26193
18825 18825_95 26226
18825 18825_100 26254
18825 18825_102 26279
18825 18825_105 26313
18825 18825_110 26358
18825 18825_115 26367
18825 18825_120 26380
18825 18825_122 26405
18825 18825_125 26439
18825 18825_130 26565
18825 18825_135 26581
18825 18825_140 26587
18825 18825_142 26606
18825 18825_145 26640
18825 18825_150 26692
18825 18825_155 26706
18825 18825_160 26714
18825 18825_165 26733
18825 18825_170 26747
18825 18825_172 26769
18825 18825_175 26803
18825 18825_180 26848
18825 18825_185 26900
18825 18825_187 26919
18825 18825_190 26953
18825 18825_195 27013
18825 18825_200 27027
18825 18825_205 27076
18825 18825_210 27114
18825 18825_212 27129
18825 18825_215 27163
18825 18825_220 27228
18825 18825_225 27237
18825 18825_230 27279
18825 18825_235 27314
18825 18825_237 27338
18825 18825_240 27420
18825 18825_245 27474
18825 18825_250 27490
18825 18825_255 27504
18825 18825_260 27541
18825 18825_262 27577
18825 18825_265 27611
18825 18825_270 27677
18825 18825_275 27710
18825 18825_277 27725
18825 18825_280 27759
18825 18825_285 27832
18825 18825_287 27861
18825 18825_290 27895
18825 18825_295 27978
18825 18825_300 28017
18825 18825_305 28056
18824 18824_45 23700
18824 18824_50 24000
18824 18824_55 24033
18824 18824_60 24067
18824 18824_62 24088
18824 18824_65 24122
18824 18824_70 24190
18824 18824_72 24225
18824 18824_75 24259
18824 18824_80 24348
18824 18824_85 24369
18824 18824_87 24387
18824 18824_90 24421
18824 18824_95 24498
18824 18824_100 24547
18824 18824_105 24580
18824 18824_110 24602
18824 18824_112 24613
18824 18824_115 24720
18824 18824_120 24773
18824 18824_125 24789
18824 18824_130 24803
18824 18824_135 24831
18824 18824_140 24867
18824 18824_142 24888
18824 18824_145 24922
18824 18824_150 24980
18824 18824_155 24987
18824 18824_160 25033
18824 18824_165 25077
18824 18824_167 25106
18824 18824_170 25140
18824 18824_175 25196
18824 18824_180 25209
18824 18824_182 25245
18824 18824_185 25279
18824 18824_190 25350
18824 18824_195 25381
18824 18824_200 25396
18824 18824_205 25409
18824 18824_210 25429
18824 18824_215 25500
18824 18824_220 25546
18824 18824_225 25563
18824 18824_230 25572
18824 18824_232 25581
18824 18824_235 25615
18824 18824_240 25670
18824 18824_245 25705
18824 18824_247 25737
18824 18824_250 25771
18824 18824_255 25819
18824 18824_260 25827
18824 18824_265 25856
18824 18824_270 25896
18824 18824_275 25905
18824 18824_277 25925
18824 18824_280 25959
18824 18824_285 26006
18824 18824_290 26145
18824 18824_295 26155
18824 18824_297 26186
18824 18824_300 26220
18824 18824_305 26266
18824 18824_310 26283
18824 18824_312 26301
18824 18824_315 26335
18824 18824_320 26384
18824 18824_325 26405
18824 18824_330 26423
18824 18824_335 26434
18824 18824_340 26447
18824 18824_345 26460
18824 18824_350 26471
18826 18826_45 25500
18826 18826_50 25800
18826 18826_55 25833
18826 18826_60 25867
18826 18826_62 25888
18826 18826_65 25922
18826 18826_70 25990
18826 18826_72 26025
18826 18826_75 26059
18826 18826_80 26148
18826 18826_85 26169
18826 18826_87 26187
18826 18826_90 26221
18826 18826_95 26298
18826 18826_100 26347
18826 18826_105 26380
18826 18826_110 26402
18826 18826_112 26413
18826 18826_115 26520
18826 18826_120 26573
18826 18826_125 26589
18826 18826_130 26603
18826 18826_135 26631
18826 18826_140 26667
18826 18826_142 26688
18826 18826_145 26722
18826 18826_150 26780
18826 18826_155 26787
18826 18826_160 26833
18826 18826_165 26877
18826 18826_167 26906
18826 18826_170 26940
18826 18826_175 26996
18826 18826_180 27009
18826 18826_182 27045
18826 18826_185 27079
18826 18826_190 27150
18826 18826_195 27181
18826 18826_200 27196
18826 18826_205 27209
18826 18826_210 27229
18826 18826_215 27300
18826 18826_220 27346
18826 18826_225 27363
18826 18826_230 27372
18826 18826_232 27381
18826 18826_235 27415
18826 18826_240 27470
18826 18826_245 27505
18826 18826_247 27537
18826 18826_250 27571
18826 18826_255 27619
18826 18826_260 27627
18826 18826_265 27656
18826 18826_270 27696
18826 18826_275 27705
18826 18826_277 27725
18826 18826_280 27759
18826 18826_285 27806
18826 18826_290 27945
18826 18826_295 27955
18826 18826_297 27986
18826 18826_300 28020
18826 18826_305 28066
18826 18826_310 28083
18826 18826_312 28101
18826 18826_315 28135
18826 18826_320 28184
18826 18826_325 28205
18826 18826_330 28223
18826 18826_335 28234
18826 18826_340 28247
18826 18826_345 28260
18826 18826_350 28271
20423 20423_1 24480
20423 20423_5 24660
20423 20423_10 24700
20423 20423_15 24732
20423 20423_20 24749
20423 20423_25 24775
20423 20423_30 24795
20423 20423_35 24806
20423 20423_37 24820
20423 20423_40 24854
20423 20423_45 24899
20423 20423_50 24916
20423 20423_52 25046
20423 20423_55 25080
20423 20423_60 25126
20423 20423_65 25151
20423 20423_70 25168
20423 20423_72 25177
20423 20423_75 25211
20423 20423_80 25265
20423 20423_85 25277
20423 20423_90 25287
20423 20423_95 25319
20423 20423_100 25347
20423 20423_102 25371
20423 20423_105 25405
20423 20423_110 25451
20423 20423_115 25460
20423 20423_120 25471
20423 20423_122 25496
20423 20423_125 25530
20423 20423_130 25599
20423 20423_135 25616
20423 20423_140 25623
20423 20423_142 25644
20423 20423_145 25740
20423 20423_150 25791
20423 20423_155 25806
20423 20423_160 25844
20423 20423_162 25882
20423 20423_165 25916
20423 20423_170 25992
20423 20423_175 26014
20423 20423_177 26035
20423 20423_180 26069
20423 20423_185 26120
20423 20423_190 26129
20423 20423_195 26156
20423 20423_200 26199
20423 20423_205 26222
20423 20423_210 26236
20423 20423_215 26246
20423 20423_220 26268
20423 20423_225 26302
20423 20423_230 26339
20423 20423_235 26375
20423 20423_240 26389
20423 20423_245 26420
20423 20423_250 26429
20423 20423_255 26447
20423 20423_257 26474
20423 20423_260 26508
20423 20423_265 26572
20423 20423_270 26581
20423 20423_275 26597
20423 20423_280 26610
20423 20423_285 26633
20423 20423_290 26646
20423 20423_295 26673
20423 20423_403 0
20423 20423_404 26339
20423 20423_405 26339
20423 20423_406 26339
20423 20423_407 26339
20423 20423_408 26339
20423 20423_409 26339
20423 20423_410 26339
20423 20423_411 26339
20425 20425_1 26280
20425 20425_5 26460
20425 20425_10 26500
20425 20425_15 26532
20425 20425_20 26549
20425 20425_25 26575
20425 20425_30 26595
20425 20425_35 26606
20425 20425_37 26620
20425 20425_40 26654
20425 20425_45 26699
20425 20425_50 26716
20425 20425_52 26846
20425 20425_55 26880
20425 20425_60 26926
20425 20425_65 26951
20425 20425_70 26968
20425 20425_72 26977
20425 20425_75 27011
20425 20425_80 27065
20425 20425_85 27077
20425 20425_90 27087
20425 20425_95 27119
20425 20425_100 27147
20425 20425_102 27171
20425 20425_105 27205
20425 20425_110 27251
20425 20425_115 27260
20425 20425_120 27271
20425 20425_122 27296
20425 20425_125 27330
20425 20425_130 27399
20425 20425_135 27416
20425 20425_140 27423
20425 20425_142 27506
20425 20425_145 27540
20425 20425_150 27591
20425 20425_155 27606
20425 20425_160 27644
20425 20425_162 27682
20425 20425_165 27692
20425 20425_170 27768
20425 20425_175 27790
20425 20425_177 27811
20425 20425_180 27821
20425 20425_185 27872
20425 20425_190 27881
20425 20425_195 27908
20425 20425_200 27951
20425 20425_205 27974
20425 20425_210 27988
20425 20425_215 27998
20425 20425_220 28020
20425 20425_225 28054
20425 20425_230 28091
20425 20425_235 28127
20425 20425_240 28141
20425 20425_245 28172
20425 20425_250 28181
20425 20425_255 28199
20425 20425_257 28226
20425 20425_260 28236
20425 20425_265 28300
20425 20425_270 28309
20425 20425_275 28325
20425 20425_280 28338
20425 20425_285 28361
20425 20425_290 28374
20425 20425_295 28401
20425 20425_403 0
20425 20425_404 28091
20425 20425_405 28091
20425 20425_406 28091
20425 20425_407 28091
20425 20425_408 28091
20425 20425_409 28091
20425 20425_410 28091
20425 20425_411 28091
20424 20424_403 0
20424 20424_404 24365
20424 20424_405 24365
20424 20424_406 24365
20424 20424_407 24365
20424 20424_408 24365
20424 20424_409 24365
20424 20424_410 24365
20424 20424_411 24365
20424 20424_10 23400
20424 20424_15 23580
20424 20424_20 23606
20424 20424_25 23614
20424 20424_30 23629
20424 20424_35 23642
20424 20424_40 23665
20424 20424_45 23676
20424 20424_50 23687
20424 20424_52 23704
20424 20424_55 23760
20424 20424_60 23798
20424 20424_65 23819
20424 20424_70 23841
20424 20424_75 23868
20424 20424_80 23897
20424 20424_85 23923
20424 20424_90 24199
20424 20424_95 24225
20424 20424_100 24253
20424 20424_105 24269
20424 20424_110 24291
20424 20424_115 24303
20424 20424_120 24338
20424 20424_125 24365
20424 20424_130 24398
20424 20424_132 24416
20424 20424_135 24450
20424 20424_140 24502
20424 20424_145 24514
20424 20424_150 24530
20424 20424_152 24557
20424 20424_155 24591
20424 20424_160 24657
20424 20424_165 24711
20424 20424_210 24747
20424 20424_215 24781
20424 20424_220 24827
20424 20424_225 24844
20424 20424_230 24853
20424 20424_232 24862
20424 20424_235 24896
20424 20424_240 24951
20424 20424_245 24986
20424 20424_247 25018
20424 20424_250 25052
20424 20424_255 25100
20424 20424_260 25108
20424 20424_265 25137
20424 20424_270 25177
20424 20424_275 25186
20424 20424_277 25206
20424 20424_280 25240
20424 20424_285 25287
20424 20424_290 25305
20424 20424_295 25315
20424 20424_297 25346
20424 20424_300 25380
20424 20424_305 25426
20424 20424_310 25443
20424 20424_312 25462
20424 20424_315 25496
20424 20424_320 25545
20424 20424_325 25566
20424 20424_330 25585
20424 20424_335 25605
20424 20424_340 25633
20424 20424_345 25658
20424 20424_350 25682
20426 20426_403 0
20426 20426_404 26165
20426 20426_405 26165
20426 20426_406 26165
20426 20426_407 26165
20426 20426_408 26165
20426 20426_409 26165
20426 20426_410 26165
20426 20426_411 26165
20426 20426_10 25200
20426 20426_15 25380
20426 20426_20 25406
20426 20426_25 25414
20426 20426_30 25429
20426 20426_35 25442
20426 20426_40 25465
20426 20426_45 25476
20426 20426_50 25487
20426 20426_52 25504
20426 20426_55 25560
20426 20426_60 25598
20426 20426_65 25619
20426 20426_70 25641
20426 20426_75 25668
20426 20426_80 25697
20426 20426_85 25723
20426 20426_90 25999
20426 20426_95 26025
20426 20426_100 26053
20426 20426_105 26069
20426 20426_110 26091
20426 20426_115 26103
20426 20426_120 26138
20426 20426_125 26165
20426 20426_130 26198
20426 20426_132 26216
20426 20426_135 26250
20426 20426_140 26302
20426 20426_145 26314
20426 20426_150 26330
20426 20426_152 26357
20426 20426_155 26391
20426 20426_160 26457
20426 20426_165 26511
20426 20426_210 26547
20426 20426_215 26581
20426 20426_220 26627
20426 20426_225 26644
20426 20426_230 26653
20426 20426_232 26662
20426 20426_235 26696
20426 20426_240 26751
20426 20426_245 26786
20426 20426_247 26818
20426 20426_250 26852
20426 20426_255 26900
20426 20426_260 26908
20426 20426_265 26937
20426 20426_270 26977
20426 20426_275 26986
20426 20426_277 27006
20426 20426_280 27040
20426 20426_285 27087
20426 20426_290 27105
20426 20426_295 27115
20426 20426_297 27146
20426 20426_300 27180
20426 20426_305 27226
20426 20426_310 27243
20426 20426_312 27262
20426 20426_315 27296
20426 20426_320 27345
20426 20426_325 27366
20426 20426_330 27385
20426 20426_335 27405
20426 20426_340 27433
20426 20426_345 27458
20426 20426_350 27482
20523 20523_1 23700
20523 20523_5 24180
20523 20523_10 24220
20523 20523_15 24246
20523 20523_20 24259
20523 20523_25 24280
20523 20523_30 24300
20523 20523_35 24311
20523 20523_40 24333
20523 20523_45 24355
20523 20523_50 24380
20523 20523_55 24406
20523 20523_60 24446
20523 20523_65 24497
20523 20523_70 24541
20523 20523_75 24556
20523 20523_80 24577
20523 20523_85 24593
20523 20523_90 24609
20523 20523_95 24624
20523 20523_100 24636
20523 20523_105 24645
20523 20523_110 24663
20523 20523_115 24677
20523 20523_120 24692
20523 20523_125 24705
20523 20523_130 24754
20523 20523_135 24773
20523 20523_140 24793
20523 20523_145 24805
20523 20523_150 24854
20523 20523_155 24893
20523 20523_160 24907
20523 20523_165 24931
20523 20523_170 24939
20523 20523_175 24981
20523 20523_180 25015
20523 20523_182 25039
20523 20523_185 25260
20523 20523_190 25314
20523 20523_195 25330
20523 20523_200 25344
20523 20523_205 25380
20523 20523_210 25416
20523 20523_215 25443
20523 20523_220 25474
20523 20523_225 25490
20523 20523_230 25522
20523 20523_235 25550
20523 20523_240 25593
20523 20523_245 25618
20523 20523_247 25645
20523 20523_250 25740
20523 20523_255 25798
20523 20523_260 25812
20523 20523_265 25852
20523 20523_270 25887
20523 20523_275 25919
20523 20523_280 25958
20523 20523_282 25979
20523 20523_285 26037
20523 20523_290 26096
20523 20523_295 26107
20523 20523_300 26131
20523 20523_305 26162
20523 20523_310 26190
20523 20523_312 26204
20523 20523_315 26262
20523 20523_320 26329
20523 20523_325 26340
20523 20523_330 26366
20523 20523_335 26398
20523 20523_340 26430
20523 20523_345 26462
20523 20523_350 26492
20523 20523_355 26506
20523 20523_360 26523
20523 20523_365 26530
20523 20523_370 26554
20523 20523_375 26586
20523 20523_380 26618
20523 20523_385 26633
20523 20523_390 26646
20523 20523_395 26676
20523 20523_400 26710
20523 20523_402 26736
20523 20523_405 27000
20523 20523_410 27057
20523 20523_415 27093
20523 20523_420 27117
20527 20527_1 27300
20527 20527_5 27780
20527 20527_10 27820
20527 20527_15 27846
20527 20527_20 27859
20527 20527_25 27880
20527 20527_30 27900
20527 20527_35 27911
20527 20527_40 27933
20527 20527_45 27955
20527 20527_50 27980
20527 20527_55 28006
20527 20527_60 28046
20527 20527_65 28097
20527 20527_70 28141
20527 20527_75 28156
20527 20527_80 28177
20527 20527_85 28193
20527 20527_90 28209
20527 20527_95 28224
20527 20527_100 28236
20527 20527_105 28245
20527 20527_110 28263
20527 20527_115 28277
20527 20527_120 28292
20527 20527_125 28305
20527 20527_130 28354
20527 20527_135 28373
20527 20527_140 28393
20527 20527_145 28405
20527 20527_150 28454
20527 20527_155 28493
20527 20527_160 28507
20527 20527_165 28531
20527 20527_170 28539
20527 20527_175 28581
20527 20527_180 28615
20527 20527_182 28639
20527 20527_185 28860
20527 20527_190 28914
20527 20527_195 28930
20527 20527_200 28944
20527 20527_205 28980
20527 20527_210 29016
20527 20527_215 29043
20527 20527_220 29074
20527 20527_225 29090
20527 20527_230 29122
20527 20527_235 29150
20527 20527_240 29193
20527 20527_245 29218
20527 20527_247 29245
20527 20527_250 29340
20527 20527_255 29398
20527 20527_260 29412
20527 20527_265 29452
20527 20527_270 29487
20527 20527_275 29519
20527 20527_280 29558
20527 20527_282 29579
20527 20527_285 29637
20527 20527_290 29696
20527 20527_295 29707
20527 20527_300 29731
20527 20527_305 29762
20527 20527_310 29790
20527 20527_312 29804
20527 20527_315 29862
20527 20527_320 29929
20527 20527_325 29940
20527 20527_330 29966
20527 20527_335 29998
20527 20527_340 30030
20527 20527_345 30062
20527 20527_350 30092
20527 20527_355 30106
20527 20527_360 30123
20527 20527_365 30130
20527 20527_370 30154
20527 20527_375 30186
20527 20527_380 30218
20527 20527_385 30233
20527 20527_390 30246
20527 20527_395 30276
20527 20527_400 30310
20527 20527_402 30336
20527 20527_405 30600
20527 20527_410 30657
20527 20527_415 30693
20527 20527_420 30717
20524 20524_285 22800
20524 20524_290 23100
20524 20524_295 23129
20524 20524_300 23179
20524 20524_305 23233
20524 20524_310 23640
20524 20524_315 23675
20524 20524_320 23694
20524 20524_325 23716
20524 20524_330 23745
20524 20524_335 23762
20524 20524_340 23774
20524 20524_345 23784
20524 20524_350 23813
20524 20524_355 23843
20524 20524_360 23873
20524 20524_365 23887
20524 20524_370 23903
20524 20524_375 23911
20524 20524_380 23935
20524 20524_385 23969
20524 20524_390 24003
20524 20524_395 24035
20524 20524_400 24064
20524 20524_402 24146
20524 20524_405 24180
20524 20524_410 24243
20524 20524_415 24255
20524 20524_420 24300
20524 20524_425 24334
20524 20524_430 24359
20524 20524_435 24393
20524 20524_440 24447
20524 20524_445 24456
20524 20524_450 24478
20524 20524_455 24506
20524 20524_460 24554
20524 20524_465 24578
20524 20524_470 24608
20524 20524_475 24629
20524 20524_480 24720
20524 20524_485 24780
20524 20524_490 24800
20524 20524_495 24814
20524 20524_500 24840
20524 20524_505 24871
20524 20524_510 24919
20524 20524_515 24939
20524 20524_520 24957
20524 20524_525 24995
20524 20524_530 25042
20524 20524_535 25075
20524 20524_540 25097
20524 20524_545 25166
20524 20524_550 25200
20524 20524_555 25253
20524 20524_560 25269
20524 20524_565 25283
20524 20524_570 25311
20524 20524_575 25347
20524 20524_580 25363
20524 20524_585 25386
20524 20524_590 25393
20524 20524_595 25439
20524 20524_600 25482
20524 20524_605 25500
20524 20524_610 25521
20524 20524_615 25533
20524 20524_620 25569
20524 20524_625 25601
20524 20524_630 25630
20524 20524_635 25644
20524 20524_640 25657
20524 20524_645 25670
20524 20524_650 25685
20524 20524_655 25699
20524 20524_660 25715
20524 20524_665 25736
20524 20524_670 25762
20524 20524_675 25786
20524 20524_680 25807
20524 20524_685 25847
20524 20524_690 25887
20524 20524_695 25914
20524 20524_700 25941
20524 20524_705 25955
20524 20524_710 25969
20524 20524_715 25997
20524 20524_720 26030
20524 20524_725 26069
20524 20524_730 26072
20524 20524_735 26103
20524 20524_740 26127
20528 20528_285 26400
20528 20528_290 26700
20528 20528_295 26729
20528 20528_300 26779
20528 20528_305 26833
20528 20528_310 27240
20528 20528_315 27275
20528 20528_320 27294
20528 20528_325 27316
20528 20528_330 27345
20528 20528_335 27362
20528 20528_340 27374
20528 20528_345 27384
20528 20528_350 27413
20528 20528_355 27443
20528 20528_360 27473
20528 20528_365 27487
20528 20528_370 27503
20528 20528_375 27511
20528 20528_380 27535
20528 20528_385 27569
20528 20528_390 27603
20528 20528_395 27635
20528 20528_400 27664
20528 20528_402 27746
20528 20528_405 27780
20528 20528_410 27843
20528 20528_415 27855
20528 20528_420 27900
20528 20528_425 27934
20528 20528_430 27959
20528 20528_435 27993
20528 20528_440 28047
20528 20528_445 28056
20528 20528_450 28078
20528 20528_455 28106
20528 20528_460 28154
20528 20528_465 28178
20528 20528_470 28208
20528 20528_475 28229
20528 20528_480 28320
20528 20528_485 28380
20528 20528_490 28400
20528 20528_495 28414
20528 20528_500 28440
20528 20528_505 28471
20528 20528_510 28519
20528 20528_515 28539
20528 20528_520 28557
20528 20528_525 28595
20528 20528_530 28642
20528 20528_535 28675
20528 20528_540 28697
20528 20528_545 28766
20528 20528_550 28800
20528 20528_555 28853
20528 20528_560 28869
20528 20528_565 28883
20528 20528_570 28911
20528 20528_575 28947
20528 20528_580 28963
20528 20528_585 28986
20528 20528_590 28993
20528 20528_595 29039
20528 20528_600 29082
20528 20528_605 29100
20528 20528_610 29121
20528 20528_615 29133
20528 20528_620 29169
20528 20528_625 29201
20528 20528_630 29230
20528 20528_635 29244
20528 20528_640 29257
20528 20528_645 29270
20528 20528_650 29285
20528 20528_655 29299
20528 20528_660 29315
20528 20528_665 29336
20528 20528_670 29362
20528 20528_675 29386
20528 20528_680 29407
20528 20528_685 29447
20528 20528_690 29487
20528 20528_695 29514
20528 20528_700 29541
20528 20528_705 29555
20528 20528_710 29569
20528 20528_715 29597
20528 20528_720 29630
20528 20528_725 29669
20528 20528_730 29672
20528 20528_735 29703
20528 20528_740 29727
8224 8224_305 22980
8224 8224_310 23160
8224 8224_315 23182
8224 8224_320 23204
8224 8224_325 23228
8224 8224_330 23258
8224 8224_332 23281
8224 8224_335 23315
8224 8224_340 23362
8224 8224_345 23377
8224 8224_350 23409
8224 8224_355 23438
8224 8224_360 23468
8224 8224_362 23486
8224 8224_365 23520
8224 8224_370 23575
8224 8224_375 23585
8224 8224_380 23611
8224 8224_382 23645
8224 8224_385 23679
8224 8224_390 23754
8224 8224_395 23795
8224 8224_400 23824
8224 8224_402 23844
8224 8224_405 23878
8224 8224_410 23939
8224 8224_415 23952
8224 8224_420 23997
8224 8224_425 24046
8224 8224_430 24092
8226 8226_305 24540
8226 8226_310 24720
8226 8226_315 24742
8226 8226_320 24764
8226 8226_325 24788
8226 8226_330 24818
8226 8226_332 24841
8226 8226_335 24875
8226 8226_340 24922
8226 8226_345 24937
8226 8226_350 24969
8226 8226_355 24998
8226 8226_360 25028
8226 8226_362 25046
8226 8226_365 25080
8226 8226_370 25135
8226 8226_375 25145
8226 8226_380 25171
8226 8226_382 25205
8226 8226_385 25239
8226 8226_390 25314
8226 8226_395 25355
8226 8226_400 25384
8226 8226_402 25404
8226 8226_405 25438
8226 8226_410 25499
8226 8226_415 25512
8226 8226_420 25557
8226 8226_425 25606
8226 8226_430 25652
8221 8221_335 24420
8221 8221_340 24454
8221 8221_345 24479
8221 8221_350 24501
8221 8221_355 24563
8221 8221_360 24603
8221 8221_365 24633
8221 8221_370 24647
8221 8221_375 24900
8221 8221_380 24964
8221 8221_385 24976
8221 8221_390 25003
8221 8221_392 25037
8221 8221_395 25071
8221 8221_400 25148
8221 8221_405 25184
8221 8221_410 25214
8221 8221_412 25232
8221 8221_415 25266
8221 8221_420 25323
8221 8221_425 25333
8221 8221_430 25361
8221 8221_435 25394
8221 8221_440 25425
8221 8221_442 25446
8221 8221_445 25480
8221 8221_450 25530
8221 8221_455 25567
8221 8221_460 25605
8221 8221_465 25633
8223 8223_335 26220
8223 8223_340 26254
8223 8223_345 26279
8223 8223_350 26301
8223 8223_355 26363
8223 8223_360 26403
8223 8223_365 26433
8223 8223_370 26447
8223 8223_375 26700
8223 8223_380 26764
8223 8223_385 26776
8223 8223_390 26803
8223 8223_392 26837
8223 8223_395 26871
8223 8223_400 26948
8223 8223_405 26984
8223 8223_410 27014
8223 8223_412 27032
8223 8223_415 27066
8223 8223_420 27123
8223 8223_425 27133
8223 8223_430 27161
8223 8223_435 27194
8223 8223_440 27225
8223 8223_442 27246
8223 8223_445 27280
8223 8223_450 27330
8223 8223_455 27367
8223 8223_460 27405
8223 8223_465 27433
19320 19320_5 21840
19320 19320_10 22140
19320 19320_15 22169
19320 19320_20 22178
19320 19320_25 22300
19322 19322_5 23460
19322 19322_10 23640
19322 19322_15 23669
19322 19322_20 23678
19322 19322_25 23800
19319 19319_10 22800
19319 19319_15 22864
19319 19319_20 23005
19319 19319_25 23052
18013 18013_10 23880
18013 18013_15 23944
18013 18013_20 24085
18013 18013_25 24132
16919 16919_5 22380
16919 16919_10 22434
16919 16919_15 22469
16919 16919_17 22508
16919 16919_20 22620
16919 16919_25 22675
16919 16919_30 22697
16919 16919_35 22716
16919 16919_40 22747
16920 16920_5 21960
16920 16920_10 22002
16920 16920_15 22111
16920 16920_20 22126
16920 16920_25 22173
16920 16920_27 22213
16920 16920_30 22320
16920 16920_35 22377
16920 16920_40 22411
16921 16921_5 24180
16921 16921_10 24234
16921 16921_15 24269
16921 16921_17 24308
16921 16921_20 24420
16921 16921_25 24475
16921 16921_30 24497
16921 16921_35 24516
16921 16921_40 24547
16922 16922_5 23760
16922 16922_10 23802
16922 16922_15 23911
16922 16922_20 23926
16922 16922_25 23973
16922 16922_27 24013
16922 16922_30 24120
16922 16922_35 24177
16922 16922_40 24211
23428 23428_315 22380
23428 23428_320 22680
23428 23428_330 22700
23428 23428_335 22809
23428 23428_340 22904
23428 23428_345 22988
23428 23428_350 23022
23428 23428_355 23084
23428 23428_400 23144
23428 23428_402 23211
23428 23428_405 23340
23428 23428_410 23404
23428 23428_415 23447
23428 23428_420 23498
23428 23428_425 23512
23428 23428_430 23532
23428 23428_435 23539
23428 23428_440 23580
23428 23428_445 23613
23428 23428_450 23653
23428 23428_452 23677
23428 23428_455 23711
23428 23428_460 23743
23428 23428_465 23766
23428 23428_470 23802
23428 23428_475 23818
23428 23428_477 23879
23428 23428_480 23913
23428 23428_485 23989
23428 23428_490 24035
23428 23428_492 24065
23428 23428_495 24099
23428 23428_500 24143
23428 23428_502 24157
23428 23428_505 24191
23428 23428_510 24254
23428 23428_515 24324
23428 23428_517 24341
23428 23428_520 24375
23428 23428_525 24439
23428 23428_530 24449
23428 23428_535 24504
23428 23428_537 24566
23428 23428_540 24600
23428 23428_545 24665
23428 23428_550 24672
23428 23428_555 24738
23428 23428_560 24822
23428 23428_562 24838
23428 23428_565 24872
23428 23428_570 24932
23428 23428_575 24940
23428 23428_580 24974
23428 23428_585 24991
23432 23432_315 25980
23432 23432_320 26280
23432 23432_330 26300
23432 23432_335 26409
23432 23432_340 26504
23432 23432_345 26588
23432 23432_350 26622
23432 23432_355 26684
23432 23432_400 26744
23432 23432_402 26811
23432 23432_405 26940
23432 23432_410 27004
23432 23432_415 27047
23432 23432_420 27098
23432 23432_425 27112
23432 23432_430 27132
23432 23432_435 27139
23432 23432_440 27180
23432 23432_445 27213
23432 23432_450 27253
23432 23432_452 27277
23432 23432_455 27311
23432 23432_460 27343
23432 23432_465 27366
23432 23432_470 27402
23432 23432_475 27418
23432 23432_477 27479
23432 23432_480 27513
23432 23432_485 27589
23432 23432_490 27635
23432 23432_492 27665
23432 23432_495 27699
23432 23432_500 27743
23432 23432_502 27757
23432 23432_505 27791
23432 23432_510 27854
23432 23432_515 27924
23432 23432_517 27941
23432 23432_520 27975
23432 23432_525 28039
23432 23432_530 28049
23432 23432_535 28104
23432 23432_537 28166
23432 23432_540 28200
23432 23432_545 28265
23432 23432_550 28272
23432 23432_555 28338
23432 23432_560 28422
23432 23432_562 28438
23432 23432_565 28472
23432 23432_570 28532
23432 23432_575 28540
23432 23432_580 28574
23432 23432_585 28591
23617 23617_315 24240
23617 23617_320 24360
23617 23617_325 24382
23617 23617_330 24480
23617 23617_335 24631
23617 23617_340 24734
23617 23617_345 24818
23617 23617_350 24852
23617 23617_355 24916
23617 23617_400 24978
23617 23617_402 25045
23617 23617_405 25380
23617 23617_410 25446
23617 23617_415 25473
23617 23617_420 25497
23621 23621_315 27840
23621 23621_320 27960
23621 23621_325 27982
23621 23621_330 28080
23621 23621_335 28231
23621 23621_340 28334
23621 23621_345 28418
23621 23621_350 28452
23621 23621_355 28516
23621 23621_400 28578
23621 23621_402 28645
23621 23621_405 28980
23621 23621_410 29046
23621 23621_415 29073
23621 23621_420 29097
;
