_nvars = 573594

_ncons = 2344980

_nobjs = 1

_snvars = 365576

_sncons = 1804940

_snbvars = 346256

_snivars = 0

_solve_time = 163.405

_ampl_time = 19.1742

_solve_elapsed_time = 61.9536

_ampl_elapsed_time = 22.3649

solve_exitcode = 0

solve_message = 'Gurobi 8.0.0: optimal solution; objective 0\
5587 simplex iterations\
1 branch-and-cut nodes\
plus 27602 simplex iterations for intbasis'

solve_result_num = 0

solve_result = solved

