_nvars = 210386

_ncons = 788356

_nobjs = 1

_snvars = 121774

_sncons = 595110

_snbvars = 112248

_snivars = 0

_solve_time = 23.7418

_ampl_time = 7.22344

_solve_elapsed_time = 14.6065

_ampl_elapsed_time = 8.78477

solve_exitcode = 0

solve_message = 'Gurobi 8.0.0: optimal solution; objective 0\
19022 simplex iterations\
1 branch-and-cut nodes\
plus 13377 simplex iterations for intbasis'

solve_result_num = 0

solve_result = solved

