_nvars = 698648

_ncons = 2986400

_nobjs = 1

_snvars = 458922

_sncons = 2324370

_snbvars = 438204

_snivars = 0

_solve_time = 609.505

_ampl_time = 24.0661

_solve_elapsed_time = 201.176

_ampl_elapsed_time = 29.5858

solve_exitcode = 0

solve_message = 'Gurobi 8.0.0: optimal solution; objective 237.6333333\
12277 simplex iterations\
263 branch-and-cut nodes\
plus 30331 simplex iterations for intbasis'

solve_result_num = 0

solve_result = solved

