_nvars = 1626240

_ncons = 4850890

_nobjs = 1

_snvars = 630656

_sncons = 3260950

_snbvars = 602030

_snivars = 0

_solve_time = 306.886

_ampl_time = 46.7315

_solve_elapsed_time = 123.222

_ampl_elapsed_time = 58.8011

solve_exitcode = 0

solve_message = 'Gurobi 8.0.0: optimal solution; objective 1.7\
6289 simplex iterations\
1 branch-and-cut nodes\
plus 40409 simplex iterations for intbasis'

solve_result_num = 0

solve_result = solved

